{
	"@type": "UploadConfigImportExportView",
	"apiKey": "Moderna.dataloader.Biomaterial",
	"displayName": "Moderna Biomaterial Data Loader",
	"helpText": "<p><u>Create new Biomaterial Data or update existing Biomaterial Data.</u></p> \n<ul style=\"list-style-type: disc;\"> \n <p>Create: If Sample ID does not match an existing Biomaterial, a new Biomaterial will be created.</p> \n</ul> \n<ul style=\"list-style-type: disc;\"> \n <p>Update: If Sample ID matches an existing Biomaterial, the existing Biomaterial Data will be updated with the information in the uploaded file.</p> \n <p></p> \n</ul> \n<p style=\"font-weight: bold;\">Only one row per Sample ID is expected.</p>",
	"failOnRowErrors": "NONE",
	"debug": true,
	"restricted": false,
	"roles": [{
		"name": "Administrator"
	}, {
		"name": "Data Manager"
	}, {
		"name": "Clinical Data Admin"
	}],
	"uiLocations": ["UPLOAD_MENU", "INTAKE_MENU"],
	"extractor": {
		"@type": "Default",
		"uploadProcedure": {
			"transformations": [{
				"@type": "Column Transformer",
				"steps": [{
					"oldColumnName": "Study",
					"newColumnName": "Study Number",
					"stepType": "RENAME"
				}, {
					"oldColumnName": "Subject",
					"newColumnName": "Subject ID",
					"stepType": "RENAME"
				}, {
					"oldColumnName": "Visit Name",
					"newColumnName": "Visit",
					"stepType": "RENAME"
				}, {
					"oldColumnName": "Accession ID",
					"newColumnName": "Requisition Number",
					"stepType": "RENAME"
				}]
			}, {
				"@type": "Collapse Duplicates"
			}],
			"operator": {
				"@type": "Querier",
				"validationResources": [{
					"@type": "Query",
					"name": "Biomaterial - 01 - DLVAL - 5101 - Sample ID - Required",
					"path": "Shared/Data Loading/Validations/Biomaterial/",
					"apiKey": "labmatrix.slc.Biomaterial.DLVAL.5101"
				}, {
					"@type": "Query",
					"name": "Biomaterial - 01 - DLVAL - 5102 - Study Number - Required",
					"path": "Shared/Data Loading/Validations/Biomaterial/",
					"apiKey": "labmatrix.slc.Biomaterial.DLVAL.5102"
				}, {
					"@type": "Query",
					"name": "Biomaterial - 01 - DLVAL - 5103 - Subject ID - Required",
					"path": "Shared/Data Loading/Validations/Biomaterial/",
					"apiKey": "labmatrix.slc.Biomaterial.DLVAL.5103"
				}, {
					"@type": "Query",
					"name": "Biomaterial - 01 - DLVAL - 5108 - Vendor - Valid",
					"path": "Shared/Data Loading/Validations/Biomaterial/",
					"apiKey": "labmatrix.slc.Biomaterial.DLVAL.5108"
				}, {
					"@type": "Query",
					"name": "Biomaterial - 01 - DLVAL - 5104 - Duplicate Facilities Trans - Created By Facility",
					"path": "Shared/Data Loading/Validations/Biomaterial/",
					"apiKey": "labmatrix.slc.Biomaterial.DLVAL.5104"
				}, {
					"@type": "Query",
					"name": "Biomaterial - 01 - DLVAL - 5105 - Duplicate Facilities Trans - Receiving Facility",
					"path": "Shared/Data Loading/Validations/Biomaterial/",
					"apiKey": "labmatrix.slc.Biomaterial.DLVAL.5105"
				}, {
					"@type": "Query",
					"name": "Biomaterial - 01 - DLVAL - 5106 - Duplicate Facilities Trans - Shipping Facility",
					"path": "Shared/Data Loading/Validations/Biomaterial/",
					"apiKey": "labmatrix.slc.Biomaterial.DLVAL.5106"
				}, {
					"@type": "Query",
					"name": "Biomaterial - 01 - DLVAL - 5107 - Duplicate Facilities Trans - Vendor",
					"path": "Shared/Data Loading/Validations/Biomaterial/",
					"apiKey": "labmatrix.slc.Biomaterial.DLVAL.5107"
				}, {
					"@type": "Query",
					"name": "Biomaterial - 01 - DLVAL - 5100 - Final Disposition - Required",
					"path": "Shared/Data Loading/Validations/Biomaterial/",
					"apiKey": "labmatrix.slc.Biomaterial.DLVAL.5100"
				}, {
					"@type": "Query",
					"name": "Biomaterial - 01 - DLVAL - 5112 - Study Number - Valid",
					"path": "Shared/Data Loading/Validations/Biomaterial/",
					"apiKey": "labmatrix.slc.Biomaterial.DLVAL.5112"
				}, {
					"@type": "Query",
					"name": "Biomaterial - 01 - DLVAL - 5116 - Duplicate Study Name Trans",
					"path": "Shared/Data Loading/Validations/Biomaterial/",
					"apiKey": "labmatrix.slc.Biomaterial.DLVAL.5116"
				}, {
					"@type": "Query",
					"name": "Biomaterial - 01 - DLVAL - 5117 - Subject ID - Required for Stub Parent",
					"path": "Shared/Data Loading/Validations/Biomaterial/",
					"apiKey": "labmatrix.slc.Biomaterial.DLVAL.5117"
				}, {
					"@type": "Query",
					"name": "Biomaterial - 01 - DLVAL - 5125 - Subject ID - Multiple Lookup Matches",
					"path": "Shared/Data Loading/Validations/Biomaterial/",
					"apiKey": "labmatrix.slc.Biomaterial.DLVAL.5125"
				}, {
					"@type": "Query",
					"name": "Biomaterial - 01 - DLVAL - 5126 - Subject ID - Alt ID Conflicts",
					"path": "Shared/Data Loading/Validations/Biomaterial/",
					"apiKey": "labmatrix.slc.Biomaterial.DLVAL.5126"
				}, {
					"@type": "Query",
					"name": "Validations - Missing Position",
					"path": "Shared/Data Loading/Moderna-specific/Validations/"
				}],
				"procedures": [{
					"@type": "Query",
					"queryConfig": {
						"@type": "Query",
						"name": "Biomaterial - 04 - DLCON - 5513 - Subject Stub Creation",
						"path": "Shared/Data Loading/Conditioners/Biomaterial/",
						"apiKey": "labmatrix.slc.Biomaterial.DLCON.5513"
					},
					"procedure": {
						"operator": {
							"@type": "Loader",
							"loader": {
								"type": "STANDARD",
								"apiKey": "Subjects"
							},
							"parameters": [{
								"name": "Subject Key",
								"prompt": "Find existing Subject records to update by",
								"defaultValue": "Code and Study",
								"promptUser": false
							}]
						},
						"destinationName": "Subjects"
					}
				}, {
					"@type": "Query",
					"queryConfig": {
						"@type": "Query",
						"name": "Biomaterial - 06 - DLCON - 5512 - Subject Detail Stub Creation",
						"path": "Shared/Data Loading/Conditioners/Biomaterial/",
						"apiKey": "labmatrix.slc.Biomaterial.DLCON.5512"
					},
					"procedure": {
						"operator": {
							"@type": "Loader",
							"loader": {
								"type": "FORM",
								"form": {
									"formExternalId": "Subject Detail",
									"name": "Subject Detail"
								}
							},
							"parameters": [{
								"name": "Form Subject Key",
								"prompt": "Find Subject record by",
								"defaultValue": "Subject Code and Study Name",
								"promptUser": false
							}, {
								"name": "Change Linked Record",
								"prompt": "Allow changes to associated Subject",
								"defaultValue": "No",
								"promptUser": false
							}, {
								"name": "FormValidation",
								"prompt": "Run Form validation queries",
								"defaultValue": "true",
								"promptUser": false
							}, {
								"name": "FormCalculation",
								"prompt": "Run Form calculation queries",
								"defaultValue": "true",
								"promptUser": false
							}]
						},
						"destinationName": "Subject Detail"
					}
				}, {
					"@type": "Query",
					"queryConfig": {
						"@type": "Query",
						"name": "Biomaterial - 04 - DLCON - 5536 - Subject Alt ID",
						"path": "Shared/Data Loading/Conditioners/Biomaterial/",
						"apiKey": "labmatrix.slc.Biomaterial.DLCON.5536"
					},
					"procedure": {
						"operator": {
							"@type": "Loader",
							"loader": {
								"type": "FORM",
								"form": {
									"formExternalId": "Subject Secondary ID",
									"name": "Subject Secondary ID"
								}
							},
							"parameters": [{
								"name": "Form Subject Key",
								"prompt": "Find Subject record by",
								"defaultValue": "Subject Code and Study Name",
								"promptUser": false
							}, {
								"name": "Change Linked Record",
								"prompt": "Allow changes to associated Subject",
								"defaultValue": "No",
								"promptUser": false
							}, {
								"name": "FormValidation",
								"prompt": "Run Form validation queries",
								"defaultValue": "true",
								"promptUser": false
							}, {
								"name": "FormCalculation",
								"prompt": "Run Form calculation queries",
								"defaultValue": "true",
								"promptUser": false
							}]
						},
						"destinationName": "Subject Secondary ID"
					}
				}, {
					"@type": "Query",
					"queryConfig": {
						"@type": "Query",
						"name": "Biomaterial - 05 - DLCON - 5533 - Create Stub Parent",
						"path": "Shared/Data Loading/Conditioners/Biomaterial/",
						"apiKey": "labmatrix.slc.Biomaterial.DLCON.5533"
					},
					"procedure": {
						"transformations": [{
							"@type": "Column Transformer",
							"steps": [{
								"oldColumnName": "Biomaterial Visit Name",
								"stepType": "REMOVE"
							}, {
								"oldColumnName": "Subject Visit Name",
								"stepType": "REMOVE"
							}, {
								"oldColumnName": "Data Source",
								"stepType": "REMOVE"
							}, {
								"newColumnName": "Name",
								"delimiterIndex": 1,
								"columnValue": "[Biomaterial External ID]",
								"stepType": "CONCAT"
							}, {
								"oldColumnName": "Biomaterial External ID",
								"newColumnName": "External ID",
								"stepType": "RENAME"
							}, {
								"oldColumnName": "Biomaterial External Source",
								"newColumnName": "External Source",
								"stepType": "RENAME"
							}, {
								"oldColumnName": "Collection Date",
								"stepType": "REMOVE"
							}, {
								"oldColumnName": "Collection Time",
								"stepType": "REMOVE"
							}, {
								"oldColumnName": "Data Source Biomaterial Visit Name",
								"stepType": "REMOVE"
							}]
						}],
						"operator": {
							"@type": "Loader",
							"loader": {
								"type": "STANDARD",
								"apiKey": "Biomaterials"
							},
							"parameters": [{
								"name": "Biomaterial Key",
								"prompt": "Find existing Biomaterial records to update by",
								"defaultValue": "External ID and Source",
								"promptUser": false
							}, {
								"name": "Parent Biomaterial Key",
								"prompt": "Link new Biomaterials to parent Biomaterial records by",
								"defaultValue": "None (no lineage information)",
								"promptUser": false
							}, {
								"name": "Source Subject Key",
								"prompt": "Link new Biomaterials to source Subject records by",
								"defaultValue": "Source Subject Code and Study",
								"promptUser": false
							}, {
								"name": "Change Source Subject",
								"prompt": "Allow changes to source Subject",
								"defaultValue": "No",
								"promptUser": false
							}, {
								"name": "Change Parent Biomaterial",
								"prompt": "Allow changes to parent Biomaterial",
								"defaultValue": "No",
								"promptUser": false
							}]
						},
						"destinationName": "Biomaterials (Parent Stub)"
					}
				}, {
					"@type": "Query",
					"queryConfig": {
						"@type": "Query",
						"name": "Biomaterial - 05 - DLCON - 5533 - Create Stub Parent",
						"path": "Shared/Data Loading/Conditioners/Biomaterial/",
						"apiKey": "labmatrix.slc.Biomaterial.DLCON.5533"
					},
					"procedure": {
						"transformations": [{
							"@type": "Column Transformer",
							"steps": [{
								"oldColumnName": "Subject Code",
								"stepType": "REMOVE"
							}, {
								"oldColumnName": "Study",
								"stepType": "REMOVE"
							}]
						}],
						"operator": {
							"@type": "Loader",
							"loader": {
								"type": "FORM",
								"form": {
									"formExternalId": "Biomaterial Detail",
									"name": "Biomaterial Detail"
								}
							},
							"parameters": [{
								"name": "Form Biomaterial Key",
								"prompt": "Find Biomaterial record by",
								"defaultValue": "Biomaterial External ID and Source",
								"promptUser": false
							}, {
								"name": "Change Linked Record",
								"prompt": "Allow changes to associated Biomaterial",
								"defaultValue": "No",
								"promptUser": false
							}, {
								"name": "FormValidation",
								"prompt": "Run Form validation queries",
								"defaultValue": "true",
								"promptUser": false
							}, {
								"name": "FormCalculation",
								"prompt": "Run Form calculation queries",
								"defaultValue": "true",
								"promptUser": false
							}]
						},
						"destinationName": "Biomaterial Detail (Parent Stub)"
					}
				}, {
					"@type": "Query",
					"queryConfig": {
						"@type": "Query",
						"name": "Moderna Biomaterial Data Loader 5505 Override",
						"path": "Shared/Data Loading/Moderna-specific/Conditioners/Biomaterial/"
					},
					"procedure": {
						"operator": {
							"@type": "Loader",
							"loader": {
								"type": "STANDARD",
								"apiKey": "Biomaterials"
							},
							"parameters": [{
								"name": "Biomaterial Key",
								"prompt": "Find existing Biomaterial records to update by",
								"defaultValue": "External ID and Source",
								"promptUser": false
							}, {
								"name": "Parent Biomaterial Key",
								"prompt": "Link new Biomaterials to parent Biomaterial records by",
								"defaultValue": "Parent Biomaterial External ID and Source",
								"promptUser": false
							}, {
								"name": "Source Subject Key",
								"prompt": "Link new Biomaterials to source Subject records by",
								"defaultValue": "Source Subject Code and Study",
								"promptUser": false
							}, {
								"name": "Change Source Subject",
								"prompt": "Allow change to source Subject",
								"defaultValue": "Yes",
								"promptUser": false
							}, {
								"name": "Change Parent Biomaterial",
								"prompt": "Allow changes to parent Biomaterial",
								"defaultValue": "Replace Parent",
								"promptUser": false
							}]
						},
						"destinationName": "Biomaterials"
					}
				}, {
					"@type": "Query",
					"queryConfig": {
						"@type": "Query",
						"name": "Biomaterial - 07 - DLCON - 5506 - Details",
						"path": "Shared/Data Loading/Conditioners/Biomaterial/",
						"apiKey": "labmatrix.slc.Biomaterial.DLCON.5506"
					},
					"procedure": {
						"operator": {
							"@type": "Loader",
							"loader": {
								"type": "FORM",
								"form": {
									"formExternalId": "Biomaterial Detail",
									"name": "Biomaterial Detail"
								}
							},
							"parameters": [{
								"name": "Form Biomaterial Key",
								"prompt": "Find Biomaterial record by",
								"defaultValue": "Biomaterial External ID and Source",
								"promptUser": false
							}, {
								"name": "Change Linked Record",
								"prompt": "Allow changes to associated Biomaterial",
								"defaultValue": "No",
								"promptUser": false
							}, {
								"name": "FormValidation",
								"prompt": "Run Form validation queries",
								"defaultValue": "true",
								"promptUser": false
							}, {
								"name": "FormCalculation",
								"prompt": "Run Form calculation queries",
								"defaultValue": "true",
								"promptUser": false
							}]
						},
						"destinationName": "Biomaterial Detail"
					}
				}, {
					"@type": "Query",
					"queryConfig": {
						"@type": "Query",
						"name": "Biomaterial - 05 - DLCON - 5532 - Parent Inheritance",
						"path": "Shared/Data Loading/Conditioners/Biomaterial/",
						"apiKey": "labmatrix.slc.Biomaterial.DLCON.5532"
					},
					"procedure": {
						"transformations": [{
							"@type": "Column Transformer",
							"steps": [{
								"oldColumnName": "Biomaterial External ID",
								"newColumnName": "External ID",
								"stepType": "RENAME"
							}, {
								"oldColumnName": "Biomaterial External Source",
								"newColumnName": "External Source",
								"stepType": "RENAME"
							}, {
								"oldColumnName": "Assay Type",
								"stepType": "REMOVE"
							}, {
								"oldColumnName": "Sample Tracking Code",
								"stepType": "REMOVE"
							}, {
								"oldColumnName": "Collection Date",
								"stepType": "REMOVE"
							}, {
								"oldColumnName": "Collection Time",
								"stepType": "REMOVE"
							}, {
								"oldColumnName": "Biomaterial Visit Name",
								"stepType": "REMOVE"
							}, {
								"oldColumnName": "Subject Visit Name",
								"stepType": "REMOVE"
							}, {
								"oldColumnName": "Data Source Biomaterial Visit Name",
								"stepType": "REMOVE"
							}]
						}],
						"operator": {
							"@type": "Loader",
							"loader": {
								"type": "STANDARD",
								"apiKey": "Biomaterials"
							},
							"parameters": [{
								"name": "Biomaterial Key",
								"prompt": "Find existing Biomaterial records to update by",
								"defaultValue": "External ID and Source",
								"promptUser": false
							}, {
								"name": "Parent Biomaterial Key",
								"prompt": "Link new Biomaterials to parent Biomaterial records by",
								"defaultValue": "Parent Biomaterial External ID and Source",
								"promptUser": false
							}, {
								"name": "Source Subject Key",
								"prompt": "Link new Biomaterials to source Subject records by",
								"defaultValue": "Source Subject Code and Study",
								"promptUser": false
							}, {
								"name": "Change Source Subject",
								"prompt": "Allow changes to source Subject",
								"defaultValue": "Yes",
								"promptUser": false
							}, {
								"name": "Change Parent Biomaterial",
								"prompt": "Allow changes to parent Biomaterial",
								"defaultValue": "Replace Parent",
								"promptUser": false
							}]
						},
						"destinationName": "Biomaterial (Parent Inheritance)\t"
					}
				}, {
					"@type": "Query",
					"queryConfig": {
						"@type": "Query",
						"name": "Biomaterial - 05 - DLCON - 5532 - Parent Inheritance",
						"path": "Shared/Data Loading/Conditioners/Biomaterial/",
						"apiKey": "labmatrix.slc.Biomaterial.DLCON.5532"
					},
					"procedure": {
						"transformations": [{
							"@type": "Column Transformer",
							"steps": [{
								"oldColumnName": "Subject Code",
								"stepType": "REMOVE"
							}, {
								"oldColumnName": "Name",
								"stepType": "REMOVE"
							}, {
								"oldColumnName": "Study",
								"stepType": "REMOVE"
							}, {
								"oldColumnName": "Type",
								"stepType": "REMOVE"
							}, {
								"oldColumnName": "Container Type",
								"stepType": "REMOVE"
							}, {
								"oldColumnName": "Parent Biomaterial External ID",
								"stepType": "REMOVE"
							}, {
								"oldColumnName": "Parent Biomaterial External Source",
								"stepType": "REMOVE"
							}]
						}],
						"operator": {
							"@type": "Loader",
							"loader": {
								"type": "FORM",
								"form": {
									"formExternalId": "Biomaterial Detail",
									"name": "Biomaterial Detail"
								}
							},
							"parameters": [{
								"name": "Form Biomaterial Key",
								"prompt": "Find Biomaterial record by",
								"defaultValue": "Biomaterial External ID and Source",
								"promptUser": false
							}, {
								"name": "Change Linked Record",
								"prompt": "Allow changes to associated Biomaterial",
								"defaultValue": "No",
								"promptUser": false
							}, {
								"name": "FormValidation",
								"prompt": "Run Form validation queries",
								"defaultValue": "true",
								"promptUser": false
							}, {
								"name": "FormCalculation",
								"prompt": "Run Form calculation queries",
								"defaultValue": "true",
								"promptUser": false
							}]
						},
						"destinationName": "Biomaterial Details (Parent Inheritance)"
					}
				}, {
					"@type": "Query",
					"queryConfig": {
						"@type": "Query",
						"name": "Biomaterial - 07 - DLCON - 5511 - Sample ID Mapping",
						"path": "Shared/Data Loading/Conditioners/Biomaterial/",
						"apiKey": "labmatrix.slc.Biomaterial.DLCON.5511"
					},
					"procedure": {
						"operator": {
							"@type": "Loader",
							"loader": {
								"type": "FORM",
								"form": {
									"formExternalId": "Sample ID Translation",
									"name": "Sample ID Translation"
								}
							},
							"parameters": [{
								"name": "Form Key",
								"prompt": "Find existing records by",
								"defaultValue": "Record External ID and Source",
								"promptUser": false
							}, {
								"name": "Form Biomaterial Key",
								"prompt": "Find Biomaterial record by",
								"defaultValue": "Biomaterial External ID and Source",
								"promptUser": false
							}, {
								"name": "Change Linked Record",
								"prompt": "Allow changes to associated Biomaterial",
								"defaultValue": "No",
								"promptUser": false
							}, {
								"name": "FormValidation",
								"prompt": "Run Form validation queries",
								"defaultValue": "true",
								"promptUser": false
							}, {
								"name": "FormCalculation",
								"prompt": "Run Form calculation queries",
								"defaultValue": "true",
								"promptUser": false
							}]
						},
						"destinationName": "Sample ID Translation"
					}
				}, {
					"@type": "Query",
					"queryConfig": {
						"@type": "Query",
						"name": "Biomaterial - 07 - DLCON - 5509 - Movement Receiving",
						"path": "Shared/Data Loading/Conditioners/Biomaterial/",
						"apiKey": "labmatrix.slc.Biomaterial.DLCON.5509"
					},
					"procedure": {
						"operator": {
							"@type": "Loader",
							"loader": {
								"type": "FORM",
								"form": {
									"formExternalId": "Biomaterial Movement",
									"name": "Biomaterial Movement"
								}
							},
							"parameters": [{
								"name": "Form Key",
								"prompt": "Find existing records by",
								"defaultValue": "Record External ID and Source",
								"promptUser": false
							}, {
								"name": "Form Biomaterial Key",
								"prompt": "Find Biomaterial record by",
								"defaultValue": "Biomaterial External ID and Source",
								"promptUser": false
							}, {
								"name": "Change Linked Record",
								"prompt": "Allow changes to associated Biomaterial",
								"defaultValue": "No",
								"promptUser": false
							}, {
								"name": "FormValidation",
								"prompt": "Run Form validation queries",
								"defaultValue": "true",
								"promptUser": false
							}, {
								"name": "FormCalculation",
								"prompt": "Run Form calculation queries",
								"defaultValue": "true",
								"promptUser": false
							}]
						},
						"destinationName": "Biomaterial Movement - Receiving"
					}
				}, {
					"@type": "Query",
					"queryConfig": {
						"@type": "Query",
						"name": "Biomaterial - 07 - DLCON - 5510 - Movement Shipping",
						"path": "Shared/Data Loading/Conditioners/Biomaterial/",
						"apiKey": "labmatrix.slc.Biomaterial.DLCON.5510"
					},
					"procedure": {
						"operator": {
							"@type": "Loader",
							"loader": {
								"type": "FORM",
								"form": {
									"formExternalId": "Biomaterial Movement",
									"name": "Biomaterial Movement"
								}
							},
							"parameters": [{
								"name": "Form Key",
								"prompt": "Find existing records by",
								"defaultValue": "Record External ID and Source",
								"promptUser": false
							}, {
								"name": "Form Biomaterial Key",
								"prompt": "Find Biomaterial record by",
								"defaultValue": "Biomaterial External ID and Source",
								"promptUser": false
							}, {
								"name": "Change Linked Record",
								"prompt": "Allow changes to associated Biomaterial",
								"defaultValue": "No",
								"promptUser": false
							}, {
								"name": "FormValidation",
								"prompt": "Run Form validation queries",
								"defaultValue": "true",
								"promptUser": false
							}, {
								"name": "FormCalculation",
								"prompt": "Run Form calculation queries",
								"defaultValue": "true",
								"promptUser": false
							}]
						},
						"destinationName": "Biomaterial Movement - Shipping"
					}
				}, {
					"@type": "Query",
					"queryConfig": {
						"@type": "Query",
						"name": "Biomaterial - 07 - DLCON - 5507 - Assay Results",
						"path": "Shared/Data Loading/Conditioners/Biomaterial/",
						"apiKey": "labmatrix.slc.Biomaterial.DLCON.5507"
					},
					"procedure": {
						"operator": {
							"@type": "Loader",
							"loader": {
								"type": "FORM",
								"form": {
									"formExternalId": "Biomaterial Result",
									"name": "Biomaterial Result"
								}
							},
							"parameters": [{
								"name": "Form Key",
								"prompt": "Find existing records by",
								"defaultValue": "Record External ID and Source",
								"promptUser": false
							}, {
								"name": "Form Biomaterial Key",
								"prompt": "Find Biomaterial record by",
								"defaultValue": "Biomaterial External ID and Source",
								"promptUser": false
							}, {
								"name": "Change Linked Record",
								"prompt": "Allow changes to associated Biomaterial",
								"defaultValue": "No",
								"promptUser": false
							}, {
								"name": "FormValidation",
								"prompt": "Run Form validation queries",
								"defaultValue": "true",
								"promptUser": false
							}, {
								"name": "FormCalculation",
								"prompt": "Run Form calculation queries",
								"defaultValue": "true",
								"promptUser": false
							}]
						},
						"destinationName": "Biomaterial Result"
					}
				}, {
					"@type": "Query",
					"queryConfig": {
						"@type": "Query",
						"name": "Biomaterial - 07 - DLCON - 5508 - Clinical Data",
						"path": "Shared/Data Loading/Conditioners/Biomaterial/",
						"apiKey": "labmatrix.slc.Biomaterial.DLCON.5508"
					},
					"procedure": {
						"operator": {
							"@type": "Loader",
							"loader": {
								"type": "FORM",
								"form": {
									"formExternalId": "Biomaterial Clinical Data",
									"name": "Biomaterial Clinical Data"
								}
							},
							"parameters": [{
								"name": "Form Key",
								"prompt": "Find existing records by",
								"defaultValue": "Record External ID and Source",
								"promptUser": false
							}, {
								"name": "Form Biomaterial Key",
								"prompt": "Find Biomaterial record by",
								"defaultValue": "Biomaterial External ID and Source",
								"promptUser": false
							}, {
								"name": "Change Linked Record",
								"prompt": "Allow changes to associated Biomaterial",
								"defaultValue": "No",
								"promptUser": false
							}, {
								"name": "FormValidation",
								"prompt": "Run Form validation queries",
								"defaultValue": "true",
								"promptUser": false
							}, {
								"name": "FormCalculation",
								"prompt": "Run Form calculation queries",
								"defaultValue": "true",
								"promptUser": false
							}]
						},
						"destinationName": "Biomaterial Clinical Data"
					}
				}, {
					"@type": "Query",
					"queryConfig": {
						"@type": "Query",
						"name": "Moderna Biomaterial Detail - Create and Update",
						"path": "Shared/Data Loading/Moderna-specific/Conditioners/Biomaterial/"
					},
					"procedure": {
						"operator": {
							"@type": "Loader",
							"loader": {
								"type": "FORM",
								"form": {
									"formExternalId": "Moderna Biomaterial Detail",
									"name": "Moderna Biomaterial Detail"
								}
							},
							"parameters": [{
								"name": "Form Biomaterial Key",
								"prompt": "Find Biomaterial record by",
								"defaultValue": "Biomaterial External ID and Source",
								"promptUser": false
							}, {
								"name": "Change Linked Record",
								"prompt": "Allow changes to associated Biomaterial",
								"defaultValue": "No",
								"promptUser": false
							}, {
								"name": "FormValidation",
								"prompt": "Run Form validation queries",
								"defaultValue": "true",
								"promptUser": false
							}, {
								"name": "FormCalculation",
								"prompt": "Run Form calculation queries",
								"defaultValue": "true",
								"promptUser": false
							}]
						},
						"destinationName": "Moderna Biomaterial Detail"
					}
				}, {
					"@type": "Query",
					"queryConfig": {
						"@type": "Query",
						"name": "Moderna ETL Storage",
						"path": "Shared/Data Loading/Moderna-specific/Conditioners/Biomaterial/"
					},
					"procedure": {
						"operator": {
							"@type": "Loader",
							"loader": {
								"type": "ETL",
								"apiKey": "etl"
							}
						},
						"destinationName": "etl"
					}
				}],
				"dataSource": {
					"name": "STAGING - Biomaterial"
				},
				"queryCacheSettings": {
					"name": "Biomaterial - 02 - DLCAC - 5000 - DataLoader Conditioning Query"
				}
			}
		},
		"columnAllowlist": "Assay Type, Barcode, Carrier, Collection Date, Collection Method, Collection Time, Concentration, Concentration Denominator Unit, Concentration Numerator Unit, Container Type, Created By Facility, Created Date, Created Time, Creation Comment, Current Location, Final Disposition, Final Disposition Comment, Final Disposition Date, Manifest Number, Mass, Mass Unit, Number of Samples, Parent Sample ID, Parent Vendor Sample ID, Received Date, Received Time, Receiving Comment, Receiving Condition, Receiving Facility, Requisition Number, Result (Y/N), Sample ID, Sample Site, Sample Tracking Code, Sample Type, Secondary Subject ID, Shipped Date, Shipped Time, Shipping Comment, Shipping Facility, Site Number, Study Number, Subject Group, Subject ID, Test Comment, Test Date, Test Type, Thaws, Timepoint, Tracking Number, Vendor, Vendor Sample ID, Visit, Volume, Volume Unit, Study, Subject, Visit Name, Sample Comment, Accession ID, __row, Position, Container Barcode",
		"maxAllowedLines": 10
	},
	"useSpecifiedDateTimeFormat": false,
	"submenuPath": "Biomaterial",
	"templateFileExport": {
		"originalFileName": "Moderna Biomaterial Data Loader Template.csv",
		"referenceFileName": "Moderna Biomaterial Data Loader-Moderna.dataloader.Biomaterial.template.csv"
	}
}