{
	"@type": "UploadConfigImportExportView",
	"displayName": "PfM Data Loader",
	"helpText": "",
	"failOnRowErrors": "NONE",
	"debug": true,
	"restricted": false,
	"roles": [{
		"name": "Clinical Data Admin"
	}],
	"uiLocations": ["UPLOAD_MENU"],
	"extractor": {
		"@type": "Default",
		"uploadProcedure": {
			"transformations": [{
				"@type": "Column Transformer",
				"steps": [{
					"oldColumnName": "Repository",
					"newColumnName": "Vendor",
					"stepType": "RENAME"
				}, {
					"oldColumnName": "Protocol",
					"newColumnName": "Study Number",
					"stepType": "RENAME"
				}, {
					"oldColumnName": "Center",
					"newColumnName": "Shipping Facility",
					"stepType": "RENAME"
				}, {
					"oldColumnName": "BSI ID",
					"newColumnName": "Vendor Sample ID",
					"stepType": "RENAME"
				}, {
					"oldColumnName": "Kit ID",
					"newColumnName": "Requisition Number",
					"stepType": "RENAME"
				}, {
					"oldColumnName": "Date Drawn",
					"newColumnName": "Collection Date",
					"stepType": "RENAME"
				}, {
					"oldColumnName": "Time Point",
					"newColumnName": "Timepoint",
					"stepType": "RENAME"
				}, {
					"oldColumnName": "Time Drawn",
					"newColumnName": "Collection Time",
					"stepType": "RENAME"
				}, {
					"oldColumnName": "Material Type",
					"newColumnName": "Sample Type",
					"stepType": "RENAME"
				}, {
					"oldColumnName": "Discard Date",
					"newColumnName": "Final Disposition Date",
					"stepType": "RENAME"
				}, {
					"oldColumnName": "Discard Reason",
					"newColumnName": "Final Disposition Comment",
					"stepType": "RENAME"
				}, {
					"oldColumnName": "Purpose",
					"newColumnName": "Assay Type",
					"stepType": "RENAME"
				}, {
					"oldColumnName": "Storage Temp (C)",
					"newColumnName": "Expected Sample Temp",
					"stepType": "RENAME"
				}, {
					"oldColumnName": "Date Received",
					"newColumnName": "Received Date",
					"stepType": "RENAME"
				}, {
					"oldColumnName": "Shipped Location",
					"newColumnName": "Receiving Facility",
					"stepType": "RENAME"
				}, {
					"oldColumnName": "Current Label",
					"newColumnName": "Sample ID",
					"stepType": "RENAME"
				}, {
					"oldColumnName": "Lot Number",
					"newColumnName": "Dose",
					"stepType": "RENAME"
				}, {
					"oldColumnName": "Vial Status",
					"newColumnName": "Sample Status",
					"stepType": "RENAME"
				}, {
					"oldColumnName": "Donor Age",
					"newColumnName": "Age",
					"stepType": "RENAME"
				}, {
					"oldColumnName": "Gender",
					"newColumnName": "Sex",
					"stepType": "RENAME"
				}, {
					"oldColumnName": "Study ID",
					"newColumnName": "Vendor Study Name",
					"stepType": "RENAME"
				}, {
					"oldColumnName": "Site",
					"newColumnName": "Site Number",
					"stepType": "RENAME"
				}, {
					"oldColumnName": "Cohort",
					"newColumnName": "Subject Group",
					"stepType": "RENAME"
				}, {
					"oldColumnName": "Comment",
					"newColumnName": "PfM Comment",
					"stepType": "RENAME"
				}]
			}],
			"operator": {
				"@type": "Querier",
				"procedures": [{
					"@type": "Query",
					"queryConfig": {
						"@type": "Query",
						"name": "PfM Subject - Create and Update",
						"path": "Shared/Data Loading/Moderna-specific/Conditioners/Biomaterial/"
					},
					"procedure": {
						"operator": {
							"@type": "Loader",
							"loader": {
								"type": "STANDARD",
								"apiKey": "Subjects"
							},
							"parameters": [{
								"name": "Subject Key",
								"prompt": "Find existing Subject records to update by",
								"defaultValue": "Code and Study",
								"promptUser": false
							}]
						},
						"destinationName": "Subjects"
					}
				}, {
					"@type": "Query",
					"queryConfig": {
						"@type": "Query",
						"name": "PfM Subject Detail - Create and Update",
						"path": "Shared/Data Loading/Moderna-specific/Conditioners/Biomaterial/"
					},
					"procedure": {
						"operator": {
							"@type": "Loader",
							"loader": {
								"type": "FORM",
								"form": {
									"formExternalId": "Subject Detail",
									"name": "Subject Detail"
								}
							},
							"parameters": [{
								"name": "Form Subject Key",
								"prompt": "Find Subject record by",
								"defaultValue": "Subject Code and Study Name",
								"promptUser": false
							}, {
								"name": "Change Linked Record",
								"prompt": "Allow changes to associated Subject",
								"defaultValue": "No",
								"promptUser": false
							}, {
								"name": "FormValidation",
								"prompt": "Run Form validation queries",
								"defaultValue": "true",
								"promptUser": false
							}, {
								"name": "FormCalculation",
								"prompt": "Run Form calculation queries",
								"defaultValue": "true",
								"promptUser": false
							}]
						},
						"destinationName": "Subject Detail"
					}
				}, {
					"@type": "Query",
					"queryConfig": {
						"@type": "Query",
						"name": "PfM Moderna Subject Details - Create and Update",
						"path": "Shared/Data Loading/Moderna-specific/Conditioners/Biomaterial/"
					},
					"procedure": {
						"operator": {
							"@type": "Loader",
							"loader": {
								"type": "FORM",
								"form": {
									"formExternalId": "Moderna Subject Detail",
									"name": "Moderna Subject Detail"
								}
							},
							"parameters": [{
								"name": "Form Subject Key",
								"prompt": "Find Subject record by",
								"defaultValue": "Subject Code and Study Name",
								"promptUser": false
							}, {
								"name": "Change Linked Record",
								"prompt": "Allow changes to associated Subject",
								"defaultValue": "No",
								"promptUser": false
							}, {
								"name": "FormValidation",
								"prompt": "Run Form validation queries",
								"defaultValue": "true",
								"promptUser": false
							}, {
								"name": "FormCalculation",
								"prompt": "Run Form calculation queries",
								"defaultValue": "true",
								"promptUser": false
							}]
						},
						"destinationName": "Moderna Subject Detail"
					}
				}, {
					"@type": "Query",
					"queryConfig": {
						"@type": "Query",
						"name": "PfM Moderna 5505 Override",
						"path": "Shared/Data Loading/Moderna-specific/Conditioners/Biomaterial/"
					},
					"procedure": {
						"operator": {
							"@type": "Loader",
							"loader": {
								"type": "STANDARD",
								"apiKey": "Biomaterials"
							},
							"parameters": [{
								"name": "Biomaterial Key",
								"prompt": "Find existing Biomaterial records to update by",
								"defaultValue": "External ID and Source",
								"promptUser": false
							}, {
								"name": "Parent Biomaterial Key",
								"prompt": "Link new Biomaterials to parent Biomaterial records by",
								"defaultValue": "None (no lineage information)",
								"promptUser": false
							}, {
								"name": "Source Subject Key",
								"prompt": "Link new Biomaterials to source Subject records by",
								"defaultValue": "Source Subject Code and Study",
								"promptUser": false
							}, {
								"name": "Change Source Subject",
								"prompt": "Allow changes to source Subject",
								"defaultValue": "Yes",
								"promptUser": false
							}, {
								"name": "Change Parent Biomaterial",
								"prompt": "Allow changes to parent Biomaterial",
								"defaultValue": "No",
								"promptUser": false
							}]
						},
						"destinationName": "Biomaterials"
					}
				}, {
					"@type": "Query",
					"queryConfig": {
						"@type": "Query",
						"name": "PfM Moderna 5506 Override",
						"path": "Shared/Data Loading/Moderna-specific/Conditioners/Biomaterial/"
					},
					"procedure": {
						"operator": {
							"@type": "Loader",
							"loader": {
								"type": "FORM",
								"form": {
									"formExternalId": "Biomaterial Detail",
									"name": "Biomaterial Detail"
								}
							},
							"parameters": [{
								"name": "Form Biomaterial Key",
								"prompt": "Find Biomaterial record by",
								"defaultValue": "Biomaterial External ID and Source",
								"promptUser": false
							}, {
								"name": "Change Linked Record",
								"prompt": "Allow changes to associated Biomaterial",
								"defaultValue": "No",
								"promptUser": false
							}, {
								"name": "FormValidation",
								"prompt": "Run Form validation queries",
								"defaultValue": "true",
								"promptUser": false
							}, {
								"name": "FormCalculation",
								"prompt": "Run Form calculation queries",
								"defaultValue": "true",
								"promptUser": false
							}]
						},
						"destinationName": "Biomaterial Detail"
					}
				}, {
					"@type": "Query",
					"queryConfig": {
						"@type": "Query",
						"name": "PfM Moderna Biomaterial Details - Create and Update",
						"path": "Shared/Data Loading/Moderna-specific/Conditioners/Biomaterial/"
					},
					"procedure": {
						"operator": {
							"@type": "Loader",
							"loader": {
								"type": "FORM",
								"form": {
									"formExternalId": "Moderna Biomaterial Detail",
									"name": "Moderna Biomaterial Detail"
								}
							},
							"parameters": [{
								"name": "Form Biomaterial Key",
								"prompt": "Find Biomaterial record by",
								"defaultValue": "Biomaterial External ID and Source",
								"promptUser": false
							}, {
								"name": "Change Linked Record",
								"prompt": "Allow changes to associated Biomaterial",
								"defaultValue": "No",
								"promptUser": false
							}, {
								"name": "FormValidation",
								"prompt": "Run Form validation queries",
								"defaultValue": "true",
								"promptUser": false
							}, {
								"name": "FormCalculation",
								"prompt": "Run Form calculation queries",
								"defaultValue": "true",
								"promptUser": false
							}]
						},
						"destinationName": "Moderna Biomaterial Detail"
					}
				}, {
					"@type": "Query",
					"queryConfig": {
						"@type": "Query",
						"name": "Biomaterial - 07 - DLCON - 5509 - Movement Receiving",
						"path": "Shared/Data Loading/Conditioners/Biomaterial/",
						"apiKey": "labmatrix.slc.Biomaterial.DLCON.5509"
					},
					"procedure": {
						"operator": {
							"@type": "Loader",
							"loader": {
								"type": "FORM",
								"form": {
									"formExternalId": "Biomaterial Movement",
									"name": "Biomaterial Movement"
								}
							},
							"parameters": [{
								"name": "Form Key",
								"prompt": "Find existing records by",
								"defaultValue": "Record External ID and Source",
								"promptUser": false
							}, {
								"name": "Form Biomaterial Key",
								"prompt": "Find Biomaterial record by",
								"defaultValue": "Biomaterial External ID and Source",
								"promptUser": false
							}, {
								"name": "Change Linked Record",
								"prompt": "Allow changes to associated Biomaterial",
								"defaultValue": "No",
								"promptUser": false
							}, {
								"name": "FormValidation",
								"prompt": "Run Form validation queries",
								"defaultValue": "true",
								"promptUser": false
							}, {
								"name": "FormCalculation",
								"prompt": "Run Form calculation queries",
								"defaultValue": "true",
								"promptUser": false
							}]
						},
						"destinationName": "Biomaterial Movement (Receiving)"
					}
				}, {
					"@type": "Query",
					"queryConfig": {
						"@type": "Query",
						"name": "Biomaterial - 07 - DLCON - 5510 - Movement Shipping",
						"path": "Shared/Data Loading/Conditioners/Biomaterial/",
						"apiKey": "labmatrix.slc.Biomaterial.DLCON.5510"
					},
					"procedure": {
						"operator": {
							"@type": "Loader",
							"loader": {
								"type": "FORM",
								"form": {
									"formExternalId": "Biomaterial Movement",
									"name": "Biomaterial Movement"
								}
							},
							"parameters": [{
								"name": "Form Key",
								"prompt": "Find existing records by",
								"defaultValue": "Record External ID and Source",
								"promptUser": false
							}, {
								"name": "Form Biomaterial Key",
								"prompt": "Find Biomaterial record by",
								"defaultValue": "Biomaterial External ID and Source",
								"promptUser": false
							}, {
								"name": "Change Linked Record",
								"prompt": "Allow changes to associated Biomaterial",
								"defaultValue": "No",
								"promptUser": false
							}, {
								"name": "FormValidation",
								"prompt": "Run Form validation queries",
								"defaultValue": "true",
								"promptUser": false
							}, {
								"name": "FormCalculation",
								"prompt": "Run Form calculation queries",
								"defaultValue": "true",
								"promptUser": false
							}]
						},
						"destinationName": "Biomaterial Movement (Shipping)"
					}
				}, {
					"@type": "Query",
					"queryConfig": {
						"@type": "Query",
						"name": "Biomaterial - 07 - DLCON - 5511 - Sample ID Mapping",
						"path": "Shared/Data Loading/Conditioners/Biomaterial/",
						"apiKey": "labmatrix.slc.Biomaterial.DLCON.5511"
					},
					"procedure": {
						"operator": {
							"@type": "Loader",
							"loader": {
								"type": "FORM",
								"form": {
									"formExternalId": "Sample ID Translation",
									"name": "Sample ID Translation"
								}
							},
							"parameters": [{
								"name": "Form Key",
								"prompt": "Find existing records by",
								"defaultValue": "Record External ID and Source",
								"promptUser": false
							}, {
								"name": "Form Biomaterial Key",
								"prompt": "Find Biomaterial record by",
								"defaultValue": "Biomaterial External ID and Source",
								"promptUser": false
							}, {
								"name": "Change Linked Record",
								"prompt": "Allow changes to associated Biomaterial",
								"defaultValue": "No",
								"promptUser": false
							}, {
								"name": "FormValidation",
								"prompt": "Run Form validation queries",
								"defaultValue": "true",
								"promptUser": false
							}, {
								"name": "FormCalculation",
								"prompt": "Run Form calculation queries",
								"defaultValue": "true",
								"promptUser": false
							}]
						},
						"destinationName": "Sample ID Translation"
					}
				}, {
					"@type": "Query",
					"queryConfig": {
						"@type": "Query",
						"name": "PfM Vendor Study Name - Create",
						"path": "Shared/Data Loading/Moderna-specific/Conditioners/Biomaterial/"
					},
					"procedure": {
						"operator": {
							"@type": "Loader",
							"loader": {
								"type": "FORM",
								"form": {
									"formExternalId": "Vendor Study Name",
									"name": "Vendor Study Name"
								}
							},
							"parameters": [{
								"name": "Form Key",
								"prompt": "Find existing records by",
								"defaultValue": "Record External ID and Source",
								"promptUser": false
							}, {
								"name": "Change Linked Record",
								"prompt": "Allow changes to associated Study",
								"defaultValue": "No",
								"promptUser": false
							}, {
								"name": "FormValidation",
								"prompt": "Run Form validation queries",
								"defaultValue": "true",
								"promptUser": false
							}, {
								"name": "FormCalculation",
								"prompt": "Run Form calculation queries",
								"defaultValue": "true",
								"promptUser": false
							}]
						},
						"destinationName": "Vendor Study Name"
					}
				}, {
					"@type": "Query",
					"queryConfig": {
						"@type": "Query",
						"name": "PfM Vendor Study Name Additional Identifier 3 - Create",
						"path": "Shared/Data Loading/Moderna-specific/Conditioners/Biomaterial/"
					},
					"procedure": {
						"operator": {
							"@type": "Loader",
							"loader": {
								"type": "FORM",
								"form": {
									"formExternalId": "Vendor Study Name",
									"name": "Vendor Study Name"
								}
							},
							"parameters": [{
								"name": "Form Key",
								"prompt": "Find existing records by",
								"defaultValue": "Record External ID and Source",
								"promptUser": false
							}, {
								"name": "Change Linked Record",
								"prompt": "Allow changes to associated Study",
								"defaultValue": "No",
								"promptUser": false
							}, {
								"name": "FormValidation",
								"prompt": "Run Form validation queries",
								"defaultValue": "true",
								"promptUser": false
							}, {
								"name": "FormCalculation",
								"prompt": "Run Form calculation queries",
								"defaultValue": "true",
								"promptUser": false
							}]
						},
						"destinationName": "Vendor Study Name 2"
					}
				}],
				"dataSource": {
					"name": "STAGING - Biomaterial"
				},
				"queryCacheSettings": {
					"name": "Biomaterial - 02 - DLCAC - 5000 - DataLoader Conditioning Query"
				}
			}
		},
		"columnAllowlist": "Repository,Protocol,Study ID,Center,Current Label,BSI ID,Subject ID,Kit ID,Visit,Date Drawn,Time Point,Time Drawn,Material Type,Aliquot Number,Discard Date,Discard Reason,Lot Number,Purpose,Thaws,Vial Status,Donor Age,Gender,Patient Diagnosis,Phase,Volume,Volume Unit,Storage Temp (C),Shipped Date,Date Received,Vial Warnings,Shipped Location,Country,Site,Additional Identifier 3,Cohort,Treatment,Treatment Status,Comment,Cell Count added to Vial (Millions of Cells), Viability",
		"maxAllowedLines": 10
	},
	"useSpecifiedDateTimeFormat": false,
	"submenuPath": "Biomaterial",
	"templateFileExport": {
		"originalFileName": "PfM Biomaterial Data Loader Template.xlsx",
		"referenceFileName": "PfM Data Loader.template.xlsx"
	}
}