{
	"@type": "WorkflowImportExportView",
	"name": "Transfer Request",
	"enabled": true,
	"content": "{\n\t\"type\":\"request\",\n\t\"path\":\"transfer\",\n\t\"reports\":\"moderna.transfer.request.reports\",\n        \"internalFulfillmentFormName\":\"Fulfillment\",\n\t\"externalFulfillmentFormName\":\"External Fulfillment\",\n\t\"roles\":{\n\t\t\"Study Director\":\"Final Reviewer\",\n\t\t\"Request Creator\":\"Request Creator\"\n\t},\n\t\"queries\":{\n\t\t\"sourceDetailsOnExternalFulfillment\":\"Moderna.workflow.transfer external fulfillment details\",\n\t\t\"sourceDetailsOnFulfillment\":\"labmatrix.workflow.moderna transfer fulfillment details\",\n\t\t\"fulfillmentsForRequest\":\"labmatrix.workflow.transfer.fulfillments for request\",\n\t\t\"findBiomaterials\":\"Moderna.labmatrix.search.workflow.transfer.find samples\",\n\t\t\"generatingFulfillments\":\"labmatrix.workflow.transfer.generate fulfillments\",\n\t\t\"biomaterialsInRequest\":\"moderna.workflow.transfer.biomaterials in transfer request\"\n\t},\n\t\"states\":{\n\t\t\"Submitted\":\"Submitted\",\n\t\t\"Draft\":\"Draft\",\n\t\t\"Fulfilled\":\"Fulfilled\",\n\t\t\"Approved\":\"Approved by Final Reviewer\",\n\t\t\"Rejected\":\"Rejected\",\n\t\t\"Canceled\":\"Canceled\"\n\t},\n\t\"search\":{\n\t\t\"defaultFields\":[\n\t\t\t\"Status\",\n\t\t\t\"Name\",\n\t\t\t\"Created On\",\n\t\t\t\"Created By\"\n\t\t],\n\t\t\"customSearches\":[\n\t\t\t{\n\t\t\t\t\"requiredRoles\":[\n\t\t\t\t\t\"Request Creator\"\n\t\t\t\t],\n\t\t\t\t\"criteria\":{\n\t\t\t\t\t\"variables\":{\n\t\t\t\t\t\t\"Status\":\"Draft\",\n\t\t\t\t\t\t\"Created By\":\"_self_\"\n\t\t\t\t\t},\n\t\t\t\t\t\"operators\":{\n\t\t\t\t\t\t\"Status\":\"in\",\n\t\t\t\t\t\t\"Created By\":\"eq\"\n\t\t\t\t\t}\n\t\t\t\t},\n\t\t\t\t\"text\":\"My Drafts\",\n\t\t\t\t\"id\":\"myDrafts\"\n\t\t\t},\n\t\t\t{\n\t\t\t\t\"requiredRoles\":[\n\t\t\t\t\t\"Request Creator\"\n\t\t\t\t],\n\t\t\t\t\"criteria\":{\n\t\t\t\t\t\"variables\":{\n\t\t\t\t\t\t\"Status\":\"Submitted\",\n\t\t\t\t\t\t\"Created By\":\"_self_\"\n\t\t\t\t\t},\n\t\t\t\t\t\"operators\":{\n\t\t\t\t\t\t\"Status\":\"in\",\n\t\t\t\t\t\t\"Created By\":\"eq\"\n\t\t\t\t\t}\n\t\t\t\t},\n\t\t\t\t\"text\":\"My Submitted Requests\",\n\t\t\t\t\"id\":\"mySubmitted\"\n\t\t\t},\n\t\t\t{\n\t\t\t\t\"requiredRoles\":[\n\t\t\t\t\t\"Request Creator\"\n\t\t\t\t],\n\t\t\t\t\"criteria\":{\n\t\t\t\t\t\"variables\":{\n\t\t\t\t\t\t\"Status\":\"Approved by Study Director\",\n\t\t\t\t\t\t\"Created By\":\"_self_\"\n\t\t\t\t\t},\n\t\t\t\t\t\"operators\":{\n\t\t\t\t\t\t\"Status\":\"in\",\n\t\t\t\t\t\t\"Created By\":\"eq\"\n\t\t\t\t\t}\n\t\t\t\t},\n\t\t\t\t\"text\":\"My Approved Requests\",\n\t\t\t\t\"id\":\"myApproved\"\n\t\t\t},\n\t\t\t{\n\t\t\t\t\"requiredRoles\":[\n\t\t\t\t\t\"Request Creator\"\n\t\t\t\t],\n\t\t\t\t\"criteria\":{\n\t\t\t\t\t\"variables\":{\n\t\t\t\t\t\t\"Status\":\"Draft, Submitted, Approved by Study Director\",\n\t\t\t\t\t\t\"Assignee\":\"_self_\"\n\t\t\t\t\t},\n\t\t\t\t\t\"operators\":{\n\t\t\t\t\t\t\"Status\":\"in\",\n\t\t\t\t\t\t\"Assignee\":\"eq\"\n\t\t\t\t\t}\n\t\t\t\t},\n\t\t\t\t\"text\":\"My Assigned Requests\",\n\t\t\t\t\"id\":\"assigned\",\n\t\t\t\t\"priority\":5\n\t\t\t},\n\t\t\t{\n\t\t\t\t\"requiredRoles\":[\n\t\t\t\t\t\"Study Director\"\n\t\t\t\t],\n\t\t\t\t\"criteria\":{\n\t\t\t\t\t\"variables\":{\n\t\t\t\t\t\t\"Status\":\"Submitted\",\n\t\t\t\t\t\t\"Assignee\":\"_self_\"\n\t\t\t\t\t},\n\t\t\t\t\t\"operators\":{\n\t\t\t\t\t\t\"Status\":\"in\",\n\t\t\t\t\t\t\"Assignee\":\"eq\"\n\t\t\t\t\t}\n\t\t\t\t},\n\t\t\t\t\"text\":\"Assigned requests for review\",\n\t\t\t\t\"id\":\"assigned\",\n\t\t\t\t\"priority\":10\n\t\t\t},\n\t\t\t{\n\t\t\t\t\"requiredRoles\":[\n\t\t\t\t\t\"Study Director\"\n\t\t\t\t],\n\t\t\t\t\"criteria\":{\n\t\t\t\t\t\"variables\":{\n\t\t\t\t\t\t\"Status\":\"Submitted\"\n\t\t\t\t\t},\n\t\t\t\t\t\"operators\":{\n\t\t\t\t\t\t\"Status\":\"in\"\n\t\t\t\t\t}\n\t\t\t\t},\n\t\t\t\t\"text\":\"Requests for review\",\n\t\t\t\t\"id\":\"review\",\n\t\t\t\t\"priority\":10\n\t\t\t}\n\t\t],\n\t\t\"queryApiKey\":\"moderna.workflow.transfer.search\"\n\t},\n\t\"destinationFieldName\":\"Destination\",\n\t\"destinationAddressFieldName\":\"Destination Address\",\n\t\"requiredFields\":[\n\n\t],\n\t\"tramline\":{\n\t\t\"color\":\"orange\",\n\t\t\"index\":3,\n\t\t\"showOnHomepageForRoles\":[\n\t\t\t\"Request Creator\",\n\t\t\t\"Study Director\"\n\t\t]\n\t},\n      \"notifications\": [{\n\t\t\"onAssignment\": true,\t\t\n\t\t\"states\": [\"Submitted\"],\n\t\t\"roles\": [\"$submitter\", \"Study Director\"],\n\t\t\"subject\": \"Labmatrix Transfer Request Submission Notification for {Relevant Studies}\",\n\t\t\"body\": [\n                        \"<p>A Moderna Transfer Request Workflow has been submitted.  Please review the request and take appropriate action.\",\n\t\t\t\"<p>Request Name: {Name}\",\n\t\t\t\"<p>Created By: {$submitter}\",\n\t\t\t\"<p>Destination Facility: {Destination}\",\n\t\t\t\"<p>Labmatrix- {$url}\",\n\t\t\t\"<p>This is an automated email.  Please do not reply.\"\n\t\t],\n\t\t\"matchFacility\": false\n\t\t\n\t\t},{\n\t\t\"states\": [\"Approved\"],\n\t\t\"roles\": [\"$submitter\", \"Study Director\"],\n\t\t\"subject\": \"Labmatrix Transfer Request Study Director Approval Notification for {Relevant Studies}\",\n\t\t\"body\": [\n\t\t\t\"<p>A Moderna Transfer Request Workflow has been approved.  No action is needed.\",\n\t\t\t\"<p>Request Name: {Name}\",\n\t\t\t\"<p>Created By: {$submitter}\",\n\t\t\t\"<p>Destination Facility: {Destination}\",\n\t\t\t\"<p>Labmatrix- {$url}\",\n\t\t\t\"<p>This is an automated email.  Please do not reply.\"\n\t\t],\n\t\t\n\t\t\"matchFacility\": false\n\t\t\n\t\t},{\n\t\t\n\t\t\"states\": [\"Rejected\"],\n\t\t\"roles\": [\"$submitter\"],\n\t\t\"subject\": \"Labmatrix Transfer Request Rejection Notification for {Relevant Studies}\",\n\t\t\"body\": [\n                        \"<p>Sample(s) in a Moderna Transfer Request Workflow have been rejected.  Please review the request and take appropriate action if necessary.\",\n\t\t\t\"<p>Request Name: {Name}\",\n\t\t\t\"<p>Created By: {$submitter}\",\n\t\t\t\"<p>Destination Facility: {Destination}\",\n\t\t\t\"<p>Labmatrix- {$url}\",\n\t\t\t\"<p>This is an automated email.  Please do not reply.\"\n\t\t],\n\t\t\"matchFacility\": false\n\t\t\n\t\t},{\n\t\t\n\t\t\"states\": [\"Canceled\"],\n\t\t\"roles\": [\"$submitter\", \"Study Director\"],\n\t\t\"subject\": \"Labmatrix Transfer Request Cancel Notification for {Relevant Studies}\",\n\t\t\"body\": [\n\t\t\t\"<p>A Moderna Transfer Request Workflow has been canceled.  Please review the request and take appropriate action if necessary.\",\n\t\t\t\"<p>Request Name: {Name}\",\n\t\t\t\"<p>Created By: {$submitter}\",\n\t\t\t\"<p>Destination Facility: {Destination}\",\n\t\t\t\"<p>Labmatrix- {$url}\",\n\t\t\t\"<p>This is an automated email.  Please do not reply.\"\n\t\t],\n\t\t\"matchFacility\": false\n\t\t\n\t\t}\t\n\n\t]\n\n}\n\n}"
}