{
	"@type": "WorkflowImportExportView",
	"name": "Analysis Request",
	"enabled": true,
	"content": "{\n\t\"type\":\"request\",\n\t\"path\":\"analysis\",\n\t\"reports\":\"moderna.analysis.request.reports\",\n\t\"externalFulfillmentFormName\":\"External Fulfillment\",\n        \"internalFulfillmentFormName\":\"Fulfillment\",\n\t\"roles\":{\n\t\t\"Study Director\":\"Final Reviewer\",\n\t\t\"Biomarker Lead\":\"Reviewer One\",\n\t\t\"Request Creator\":\"Request Creator\"\n\t},\n\t\"queries\":{\n\t\t\"summaryOfBiomaterialTypes\":\"labmatrix.workflow.analysis.biomaterial type breakdown\",\n\t\t\"biomaterialsForFinalReviewer\":\"labmatrix.workflow.analysis.Moderna biomaterials for study director\",\n\t\t\"sourceDetailsOnExternalFulfillment\":\"Moderna.workflow.analysis external fulfillment details\",\n\t\t\"sourceDetailsOnFulfillment\":\"labmatrix.workflow.moderna analysis fulfillment details\",\n\t\t\"fulfillmentsForRequest\":\"labmatrix.workflow.analysis.fulfillments for request\",\n\t\t\"findBiomaterials\":\"labmatrix.search.workflow.analysis.Moderna samples for analysis\",\n\t\t\"generatingFulfillments\":\"labmatrix.workflow.analysis.generate fulfillments\",\n\t\t\"biomaterialsInRequest\":\"labmatrix.workflow.analysis.Moderna biomaterials in analysis request\"\n\t},\n\t\"states\":{\n\t\t\"Submitted\":\"Submitted\",\n\t\t\"Approved by Study Director\":\"Approved by Final Reviewer\",\n\t\t\"Draft\":\"Draft\",\n\t\t\"Approved by Biomarker Lead\":\"Approved by Reviewer One\",\n\t\t\"Fulfilled\":\"Fulfilled\",\n\t\t\"Rejected\":\"Rejected\",\n\t\t\"Canceled\":\"Canceled\"\n\t},\n\t\"search\":{\n\t\t\"defaultFields\":[\n\t\t\t\"Status\",\n\t\t\t\"Name\",\n\t\t\t\"Created On\",\n\t\t\t\"Created By\"\n\t\t],\n\t\t\"customSearches\":[\n\t\t\t{\n\t\t\t\t\"requiredRoles\":[\n\t\t\t\t\t\"Everyone\"\n\t\t\t\t],\n\t\t\t\t\"criteria\":{\n\t\t\t\t\t\"variables\":{\n\t\t\t\t\t},\n\t\t\t\t\t\"operators\":{\n\t\t\t\t\t\t\"Status\":\"in\",\n\t\t\t\t\t}\n\t\t\t\t},\n\t\t\t\t\"id\":\"all\",\n\t\t\t\t\"text\":\"All Analysis Requests\",\n\t\t\t},\n\t\t\t{\n\t\t\t\t\"requiredRoles\":[\n\t\t\t\t\t\"Request Creator\"\n\t\t\t\t],\n\t\t\t\t\"criteria\":{\n\t\t\t\t\t\"variables\":{\n\t\t\t\t\t\t\"Status\":\"Draft\",\n\t\t\t\t\t\t\"Created By\":\"_self_\"\n\t\t\t\t\t},\n\t\t\t\t\t\"operators\":{\n\t\t\t\t\t\t\"Status\":\"in\",\n\t\t\t\t\t\t\"Created By\":\"eq\"\n\t\t\t\t\t}\n\t\t\t\t},\n\t\t\t\t\"text\":\"My Drafts\",\n\t\t\t\t\"id\":\"myDrafts\"\n\t\t\t},\n\t\t\t{\n\t\t\t\t\"requiredRoles\":[\n\t\t\t\t\t\"Request Creator\"\n\t\t\t\t],\n\t\t\t\t\"criteria\":{\n\t\t\t\t\t\"variables\":{\n\t\t\t\t\t\t\"Status\":\"Submitted, Approved by Biomarker Lead\",\n\t\t\t\t\t\t\"Created By\":\"_self_\"\n\t\t\t\t\t},\n\t\t\t\t\t\"operators\":{\n\t\t\t\t\t\t\"Status\":\"in\",\n\t\t\t\t\t\t\"Created By\":\"eq\"\n\t\t\t\t\t}\n\t\t\t\t},\n\t\t\t\t\"text\":\"My Submitted Requests\",\n\t\t\t\t\"id\":\"mySubmitted\"\n\t\t\t},\n\t\t\t{\n\t\t\t\t\"requiredRoles\":[\n\t\t\t\t\t\"Request Creator\"\n\t\t\t\t],\n\t\t\t\t\"criteria\":{\n\t\t\t\t\t\"variables\":{\n\t\t\t\t\t\t\"Status\":\"Approved by Study Director\",\n\t\t\t\t\t\t\"Created By\":\"_self_\"\n\t\t\t\t\t},\n\t\t\t\t\t\"operators\":{\n\t\t\t\t\t\t\"Status\":\"in\",\n\t\t\t\t\t\t\"Created By\":\"eq\"\n\t\t\t\t\t}\n\t\t\t\t},\n\t\t\t\t\"text\":\"My Approved Requests\",\n\t\t\t\t\"id\":\"myApproved\"\n\t\t\t},\n\t\t\t{\n\t\t\t\t\"requiredRoles\":[\n\t\t\t\t\t\"Request Creator\"\n\t\t\t\t],\n\t\t\t\t\"criteria\":{\n\t\t\t\t\t\"variables\":{\n\t\t\t\t\t\t\"Status\":\"Draft, Submitted, Approved by Biomarker Lead, Approved by Study Director\",\n\t\t\t\t\t\t\"Assignee\":\"_self_\"\n\t\t\t\t\t},\n\t\t\t\t\t\"operators\":{\n\t\t\t\t\t\t\"Status\":\"in\",\n\t\t\t\t\t\t\"Assignee\":\"eq\"\n\t\t\t\t\t}\n\t\t\t\t},\n\t\t\t\t\"text\":\"My Assigned Requests\",\n\t\t\t\t\"id\":\"assigned\",\n\t\t\t\t\"priority\":5\n\t\t\t},\n\t\t\t{\n\t\t\t\t\"requiredRoles\":[\n\t\t\t\t\t\"Biomarker Lead\"\n\t\t\t\t],\n\t\t\t\t\"criteria\":{\n\t\t\t\t\t\"variables\":{\n\t\t\t\t\t\t\"Status\":\"Submitted\",\n\t\t\t\t\t\t\"Assignee\":\"_self_\"\n\t\t\t\t\t},\n\t\t\t\t\t\"operators\":{\n\t\t\t\t\t\t\"Status\":\"in\",\n\t\t\t\t\t\t\"Assignee\":\"eq\"\n\t\t\t\t\t}\n\t\t\t\t},\n\t\t\t\t\"text\":\"Assigned Requests for Review\",\n\t\t\t\t\"id\":\"assigned\",\n\t\t\t\t\"priority\":20\n\t\t\t},\n\t\t\t{\n\t\t\t\t\"requiredRoles\":[\n\t\t\t\t\t\"Biomarker Lead\"\n\t\t\t\t],\n\t\t\t\t\"criteria\":{\n\t\t\t\t\t\"variables\":{\n\t\t\t\t\t\t\"Status\":\"Submitted\"\n\t\t\t\t\t},\n\t\t\t\t\t\"operators\":{\n\t\t\t\t\t\t\"Status\":\"in\"\n\t\t\t\t\t}\n\t\t\t\t},\n\t\t\t\t\"text\":\"Requests for Review\",\n\t\t\t\t\"id\":\"review\",\n\t\t\t\t\"priority\":20\n\t\t\t},\n\t\t\t{\n\t\t\t\t\"requiredRoles\":[\n\t\t\t\t\t\"Study Director\"\n\t\t\t\t],\n\t\t\t\t\"criteria\":{\n\t\t\t\t\t\"variables\":{\n\t\t\t\t\t\t\"Status\":\"Approved by Biomarker Lead\",\n\t\t\t\t\t\t\"Assignee\":\"_self_\"\n\t\t\t\t\t},\n\t\t\t\t\t\"operators\":{\n\t\t\t\t\t\t\"Status\":\"in\",\n\t\t\t\t\t\t\"Assignee\":\"eq\"\n\t\t\t\t\t}\n\t\t\t\t},\n\t\t\t\t\"text\":\"Assigned Requests for Review\",\n\t\t\t\t\"id\":\"assigned\",\n\t\t\t\t\"priority\":20\n\t\t\t},\n\t\t\t{\n\t\t\t\t\"requiredRoles\":[\n\t\t\t\t\t\"Study Director\"\n\t\t\t\t],\n\t\t\t\t\"criteria\":{\n\t\t\t\t\t\"variables\":{\n\t\t\t\t\t\t\"Status\":\"Approved by Biomarker Lead\"\n\t\t\t\t\t},\n\t\t\t\t\t\"operators\":{\n\t\t\t\t\t\t\"Status\":\"in\"\n\t\t\t\t\t}\n\t\t\t\t},\n\t\t\t\t\"text\":\"Requests for review\",\n\t\t\t\t\"id\":\"review\",\n\t\t\t\t\"priority\":20\n\t\t\t},\n\t\t\t{\n\t\t\t\t\"requiredRoles\":[\n\t\t\t\t\t\"Biomarker Lead\",\n\t\t\t\t\t\"Study Director\"\n\t\t\t\t],\n\t\t\t\t\"criteria\":{\n\t\t\t\t\t\"variables\":{\n\t\t\t\t\t\t\"Status\":\"Submitted, Approved by Biomarker Lead\",\n\t\t\t\t\t\t\"Assignee\":\"_self_\"\n\t\t\t\t\t},\n\t\t\t\t\t\"operators\":{\n\t\t\t\t\t\t\"Status\":\"in\",\n\t\t\t\t\t\t\"Assignee\":\"eq\"\n\t\t\t\t\t}\n\t\t\t\t},\n\t\t\t\t\"text\":\"Assigned requests for review\",\n\t\t\t\t\"id\":\"assigned\",\n\t\t\t\t\"priority\":10\n\t\t\t},\n\t\t\t{\n\t\t\t\t\"requiredRoles\":[\n\t\t\t\t\t\"Biomarker Lead\",\n\t\t\t\t\t\"Study Director\"\n\t\t\t\t],\n\t\t\t\t\"criteria\":{\n\t\t\t\t\t\"variables\":{\n\t\t\t\t\t\t\"Status\":\"Submitted, Approved by Biomarker Lead\"\n\t\t\t\t\t},\n\t\t\t\t\t\"operators\":{\n\t\t\t\t\t\t\"Status\":\"in\"\n\t\t\t\t\t}\n\t\t\t\t},\n\t\t\t\t\"text\":\"Requests for review\",\n\t\t\t\t\"id\":\"review\",\n\t\t\t\t\"priority\":10\n\t\t\t}\n\t\t],\n\t\t\"queryApiKey\":\"moderna.workflow.analysis.search\"\n\t},\n\t\"destinationFieldName\":\"External Analyzing Lab\",\n\t\"destinationAddressFieldName\":\"External Lab Address\",\n\t\"requiredFields\":[\n\n\t],\n\t\"tramline\":{\n\t\t\"color\":\"blue\",\n\t\t\"index\":1,\n\t\t\"showOnHomepageForRoles\":[\n\t\t\t\"Request Creator\",\n\t\t\t\"Biomarker Lead\",\n\t\t\t\"Study Director\"\n\t\t]\n\t},\n\t\n\t\"notifications\": [{\n\t\t\"onAssignment\": true,\n\t\t\n\t\t\"states\": [\"Submitted\"],\n\t\t\"roles\": [\"$submitter\", \"Biomarker Lead\", \"Assignee\"],\n\t\t\"subject\": \"Labmatrix Analysis Request Notification: Submission for Studies: {Relevant Studies}\",\n\t\t\"body\": [\n                        \"<p>A Moderna Analysis Request has been submitted.  Please review the request and take appropriate action.\",\n\t\t\t\"<p>Request Name: {Name}\",\n                        \"<p>Studies: {Relevant Studies}\",\n\t\t\t\"<p>Requestor: {Requestor Name}\",\n                        \"<p>Analyzing Lab: {External Analyzing Lab}\",\n\t\t\t\"<p>To view and/or update the status of this request, click here: {$url}\",\n\t\t\t\"<p>This is an automated email.  Please do not reply.\"\n\t\t],\n\t\t\"matchFacility\": false\n\t\t\n\t\t},{\n\t\t\"states\": [\"Approved by Biomarker Lead\"],\n\t\t\"roles\": [\"$submitter\", \"Biomarker Lead\", \"Study Director\", \"Assignee\"],\n\t\t\"subject\": \"Labmatrix Analysis Request Notification: Biomarker Lead Approval for Studies: {Relevant Studies}\",\n\t\t\"body\": [\n\t\t\t\"<p>A Moderna Analysis Request has been approved by Biomarker Lead.  No action is needed.\",\n\t\t\t\"<p>Request: {Name}\",\n\t\t\t\"<p>Study: {Relevant Studies}\",\n\t\t\t\"<p>Requestor: {Requestor Name}\",\n\t\t\t\"<p>Analyzing Lab: {External Analyzing Lab}\",\n\t\t\t\"<p>To view and/or update the status of this request, click here: {$url}\",\n\t\t\t\"<p>This is an automated email.  Please do not reply.\"\n\t\t],\n\t\t\"matchFacility\": false\n\t\t\n\t\t},{\n\t\t\n\t\t\"states\": [\"Approved by Study Director\"],\n\t\t\"roles\": [\"$submitter\", \"Biobank Lead\", \"Study Director\", \"Assignee\"],\n\t\t\"subject\": \"Labmatrix Analysis Request Notification: Study Director Approval for Studies: {Relevant Studies}\",\n\t\t\"body\": [\n\t\t\t\"<p>A Moderna Analysis Request has been approved by Study Director.  No action is needed.\",\n\t\t\t\"<p>Request: {Name}\",\n\t\t\t\"<p>Study: {Relevant Studies}\",\n\t\t\t\"<p>Requestor: {Requestor Name}\",\n\t\t\t\"<p>Analyzing Lab: {External Analyzing Lab}\",\n\t\t\t\"<p>To view and/or update the status of this request, click here: {$url}\",\n\t\t\t\"<p>This is an automated email.  Please do not reply.\"\n\t\t],\n\t\t\"matchFacility\": false\n\t\t\n\t\t},{\n\t\t\n\t\t\"states\": [\"Rejected\"],\n\t\t\"roles\": [\"$submitter\"],\n\t\t\"subject\": \"Labmatrix Analysis Request Notification: Rejection for {Relevant Studies}\",\n\t\t\"body\": [\n                        \"<p>A Moderna Analysis Request has been rejected.  No action is needed.\",\n\t\t\t\"<p>Request: {Name}\",\n\t\t\t\"<p>Study: {Relevant Studies}\",\n\t\t\t\"<p>Requestor: {Requestor Name}\",\n\t\t\t\"<p>Analyzing Lab: {External Analyzing Lab}\",\n                        \"<p>To view and/or update the status of this request, {Name}, click here: {$url}\",\n\t\t\t\"<p>This is an automated email.  Please do not reply.\"\n\t\t],\n\t\t\"matchFacility\": false\n\t\t\n\t\t},{\n\t\t\n\t\t\"states\": [\"Canceled\"],\n\t\t\"roles\": [\"$submitter\", \"Study Director\", \"Biomarker Lead\", \"Assignee\"],\n\t\t\"subject\": \"Labmatrix Analysis Request Notification: Canceled for {Relevant Studies}\",\n\t\t\"body\": [\n\t\t\t\"<p>A Moderna Analysis Request has been canceled.  Please review the request and take appropriate action if necessary.\",\n\t\t\t\"<p>Request: {Name}\",\n\t\t\t\"<p>Study: {Relevant Studies}\",\n\t\t\t\"<p>Requestor: {Requestor Name}\",\n\t\t\t\"<p>Analyzing Lab: {External Analyzing Lab}\",\n\t\t\t\"<p>To view and/or update the status of this request, {Name}, click here: {$url}\",\n\t\t\t\"<p>This is an automated email.  Please do not reply.\"\n\t\t],\n\t\t\"matchFacility\": false\n\t\t\n\t\t}\t\n\n\t]\n\n}"
}