{
	"@type": "UIConfigurationImportExportView",
	"name": "Clinical Studies",
	"formConfigs": [{
		"form": {
			"formExternalId": "Moderna Biomaterial Detail",
			"name": "Moderna Biomaterial Detail"
		},
		"formType": 3,
		"display": "EMBEDDED",
		"position": 2
	}, {
		"form": {
			"formExternalId": "Moderna Subject Detail",
			"name": "Moderna Subject Detail"
		},
		"formType": 2,
		"display": "EMBEDDED"
	}, {
		"form": {
			"formExternalId": "Vendor Study Name",
			"name": "Vendor Study Name"
		},
		"formType": 5,
		"display": "FORM_BROWSER"
	}]
}