{
	"@type": "UIConfigurationImportExportView",
	"name": "Research Studies",
	"description": "This is a Moderna-specific UI Configuration intended to support layouts appropriate to Research Studies.",
	"formConfigs": [{
		"form": {
			"formExternalId": "Moderna Research Study Box Tracker",
			"name": "Moderna Research Study Box Tracker"
		},
		"formType": 5,
		"display": "TAB",
		"position": 1,
		"label": "Research Study Boxes"
	}, {
		"form": {
			"formExternalId": "Vendor Study Name",
			"name": "Vendor Study Name"
		},
		"formType": 5,
		"display": "FORM_BROWSER"
	}]
}