{
	"@type": "MonitorGroup",
	"name": "PPD File Load Schedule",
	"loadAsUser": {
		"fullName": "Load Admin",
		"name": "load_admin"
	},
	"cronSchedule": "0 0 0 * * ?",
	"cronTimezone": "Eastern Standard Time",
	"whenToRun": "USE_SCHEDULE_PICKER",
	"networkFileLocation": {
		"name": "BioFortis sFTP"
	},
	"networkFilePath": "PPD Feeds/Load Files",
	"locationType": "NETWORK_FILE",
	"errorNetworkFileLocation": {
		"name": "BioFortis sFTP"
	},
	"errorFileNetworkPath": "PPD Feeds/Error Files",
	"errorLocationType": "NETWORK_FILE",
	"recipients": "",
	"errorSubject": "Dataload Notification from Labmatrix - {Data Loader Name}",
	"errorMessage": "Feedback for {Data Loader Name} data load.\n\nFile: {File Name} \n\n\n-- This is an automated email. Please do not reply.",
	"monitors": [{
		"@type": "FileMonitor",
		"name": "PPD",
		"uploadConfig": {
			"apiKey": "moderna.dataloaders.ppd",
			"displayName": "PPD Data Loader"
		},
		"fileNamePattern": "",
		"patternType": "ALL",
		"topicType": "MONITOR",
		"topicParamOne": "",
		"topicParamTwo": ""
	}],
	"sendErrorFile": false,
	"sendSuccessEmail": false,
	"enabled": true,
	"loadCumulativeData": false,
	"dropBlankErrorFile": false,
	"subject_failed": "Failed Dataload Notification from Labmatrix - {Load Schedule Name}",
	"body_failed": "Failure occurred during processing of {Load Schedule Name} data load.\n\n-- This is an automated email. Please do not reply.\n\nError:",
	"cronScheduleDescription": "At 12:00 am",
	"recipientsFailed": ""
}