{
	"@type": "SecurityGroupImportExportView",
	"name": "Clinical Data",
	"description": "Moderna-specific security group for managing access to clinical data",
	"grantedPermissions": [{
		"biomaterialPermission": 3,
		"subjectPermission": 3,
		"studyPermission": 2,
		"formAndDatasourcePermission": 3,
		"phi": true,
		"roleName": "Clinical Data Admin"
	}, {
		"biomaterialPermission": 4,
		"subjectPermission": 4,
		"studyPermission": 2,
		"formAndDatasourcePermission": 4,
		"phi": true,
		"roleName": "Delete Admin"
	}, {
		"biomaterialPermission": 1,
		"subjectPermission": 1,
		"studyPermission": 1,
		"formAndDatasourcePermission": 1,
		"phi": true,
		"roleName": "Clinical Read Only"
	}]
}