{
	"@type": "CustomDataFormImportExportView",
	"name": "Scanned Barcode",
	"type": "CHILD_FORM",
	"externalId": "Scanned Barcode",
	"useDefault": true,
	"showAttachments": false,
	"allowReadOnlyRecords": false,
	"attachmentsLabel": "Attachments",
	"createSqbDataSource": true,
	"multipleEntries": true,
	"storeComments": true,
	"parentType": "STANDALONE",
	"allowRecordLock": false,
	"allowEditWithoutEntityPerms": false,
	"columnNum": 2,
	"allowManualEntryExternalId": false,
	"showCreateAnother": true,
	"showSaveButton": true,
	"showInDataEntry": true,
	"showInSearch": true,
	"fields": [{
		"name": "Scanned Barcode",
		"externalId": "Scanned Barcode",
		"commentsDisplayType": "AS_TOOLTIP",
		"containsPHI": false,
		"defaultToCurrent": false,
		"upperBound": "250",
		"fieldType": "TEXT",
		"required": false,
		"title": false
	}, {
		"name": "Biomaterial ID",
		"externalId": "Biomaterial ID",
		"commentsDisplayType": "AS_TOOLTIP",
		"containsPHI": false,
		"defaultToCurrent": false,
		"fieldType": "INTEGER",
		"required": false,
		"title": false
	}, {
		"name": "Biomaterial Workflow ID",
		"externalId": "Biomaterial Workflow ID",
		"commentsDisplayType": "AS_TOOLTIP",
		"containsPHI": false,
		"defaultToCurrent": false,
		"fieldType": "INTEGER",
		"required": false,
		"title": false
	}],
	"datasource": {
		"@type": "QiagramDatasourceImportExportView",
		"name": "Scanned Barcodes",
		"isUserIcon": false,
		"autoUpdateInCatalog": false,
		"paletteGroup": "Workflows",
		"martName": "MART_EX_FORM_Scanned Barcode",
		"fields": [{
			"name": "Scanned Barcode",
			"type": {
				"name": "String"
			},
			"size": 250,
			"columnName": "Scanned Barcode",
			"modules": "18",
			"isPhi": false,
			"accessGroupIdListColumnName": "access_group_id_list",
			"isCataloged": false,
			"ordinalPosition": 0
		}, {
			"name": "Biomaterial ID",
			"type": {
				"name": "Integer"
			},
			"precision": 10,
			"columnName": "Biomaterial ID",
			"modules": "18",
			"isPhi": false,
			"accessGroupIdListColumnName": "access_group_id_list",
			"isCataloged": false,
			"ordinalPosition": 1
		}, {
			"name": "Biomaterial Workflow ID",
			"type": {
				"name": "Integer"
			},
			"precision": 10,
			"columnName": "Biomaterial Workflow ID",
			"modules": "18",
			"isPhi": false,
			"accessGroupIdListColumnName": "access_group_id_list",
			"isCataloged": false,
			"ordinalPosition": 2
		}, {
			"name": "record id",
			"description": "The system-generated record ID.",
			"descriptionHtml": "The system-generated record ID.",
			"type": {
				"name": "Integer"
			},
			"precision": 10,
			"columnName": "id",
			"modules": "18",
			"isPhi": false,
			"accessGroupIdListColumnName": "access_group_id_list",
			"isCataloged": false,
			"ordinalPosition": 3
		}, {
			"name": "parent record id",
			"description": "The system-generated ID of the parent record.",
			"descriptionHtml": "The system-generated ID of the parent record.",
			"type": {
				"name": "Integer"
			},
			"precision": 10,
			"columnName": "parent_record_id",
			"modules": "18",
			"isPhi": false,
			"accessGroupIdListColumnName": "access_group_id_list",
			"isCataloged": false,
			"ordinalPosition": 4
		}, {
			"name": "parent field id",
			"description": "The system-generated ID of parent field.",
			"descriptionHtml": "The system-generated ID of parent field.",
			"type": {
				"name": "Integer"
			},
			"precision": 10,
			"columnName": "parent_field_id",
			"modules": "18",
			"isPhi": false,
			"accessGroupIdListColumnName": "access_group_id_list",
			"isCataloged": false,
			"ordinalPosition": 5
		}, {
			"name": "parent form id",
			"description": "The system-generated ID of parent form to which the record belongs.",
			"descriptionHtml": "The system-generated ID of parent form to which the record belongs.",
			"type": {
				"name": "Integer"
			},
			"precision": 10,
			"columnName": "parent_form_id",
			"modules": "18",
			"isPhi": false,
			"accessGroupIdListColumnName": "access_group_id_list",
			"isCataloged": false,
			"ordinalPosition": 6
		}, {
			"name": "record is read-only",
			"description": "Whether this record is locked, making the record read-only",
			"descriptionHtml": "Whether this record is locked, making the record read-only",
			"type": {
				"name": "Boolean"
			},
			"columnName": "is_locked",
			"modules": "18",
			"isPhi": false,
			"accessGroupIdListColumnName": "access_group_id_list",
			"isCataloged": false,
			"ordinalPosition": 7
		}, {
			"name": "record external id",
			"description": "The legacy ID of this record in the system where it was originally stored.",
			"descriptionHtml": "The legacy ID of this record in the system where it was originally stored.",
			"type": {
				"name": "String"
			},
			"size": 256,
			"columnName": "__external_id",
			"modules": "18",
			"isPhi": false,
			"accessGroupIdListColumnName": "access_group_id_list",
			"isCataloged": false,
			"ordinalPosition": 8
		}, {
			"name": "record external source",
			"description": "The name of the system where this record was originally stored.",
			"descriptionHtml": "The name of the system where this record was originally stored.",
			"type": {
				"name": "String"
			},
			"size": 256,
			"columnName": "__external_source",
			"modules": "18",
			"isPhi": false,
			"accessGroupIdListColumnName": "access_group_id_list",
			"isCataloged": false,
			"ordinalPosition": 9
		}, {
			"name": "record create date",
			"description": "The date this record was created.",
			"descriptionHtml": "The date this record was created.",
			"type": {
				"name": "Datetime"
			},
			"columnName": "record_create_date",
			"modules": "18",
			"isPhi": false,
			"accessGroupIdListColumnName": "access_group_id_list",
			"isCataloged": false,
			"ordinalPosition": 10
		}, {
			"name": "record creator",
			"description": "The user who created this record.",
			"descriptionHtml": "The user who created this record.",
			"type": {
				"name": "String"
			},
			"size": 250,
			"columnName": "record_creator",
			"modules": "18",
			"isPhi": false,
			"accessGroupIdListColumnName": "access_group_id_list",
			"isCataloged": false,
			"ordinalPosition": 11
		}, {
			"name": "record last modified date",
			"description": "The date this record was last modified.",
			"descriptionHtml": "The date this record was last modified.",
			"type": {
				"name": "Datetime"
			},
			"columnName": "record_last_modified_date",
			"modules": "18",
			"isPhi": false,
			"accessGroupIdListColumnName": "access_group_id_list",
			"isCataloged": false,
			"ordinalPosition": 12
		}, {
			"name": "record last modifier",
			"description": "The user who last modified this record.",
			"descriptionHtml": "The user who last modified this record.",
			"type": {
				"name": "String"
			},
			"size": 250,
			"columnName": "record_last_modifier",
			"modules": "18",
			"isPhi": false,
			"accessGroupIdListColumnName": "access_group_id_list",
			"isCataloged": false,
			"ordinalPosition": 13
		}, {
			"name": "batch id",
			"description": "The id of the batch in which this record was uploaded.",
			"descriptionHtml": "The id of the batch in which this record was uploaded.",
			"type": {
				"name": "String"
			},
			"size": 250,
			"columnName": "batch_id",
			"modules": "18",
			"isPhi": false,
			"accessGroupIdListColumnName": "access_group_id_list",
			"isCataloged": false,
			"ordinalPosition": 14
		}, {
			"name": "batch step id",
			"description": "The id of the step of the batch in which this record was uploaded.",
			"descriptionHtml": "The id of the step of the batch in which this record was uploaded.",
			"type": {
				"name": "String"
			},
			"size": 250,
			"columnName": "batch_step_id",
			"modules": "18",
			"isPhi": false,
			"accessGroupIdListColumnName": "access_group_id_list",
			"isCataloged": false,
			"ordinalPosition": 15
		}, {
			"name": "form id",
			"description": "The id of the custom data form.",
			"descriptionHtml": "The id of the custom data form.",
			"type": {
				"name": "Integer"
			},
			"columnName": "form_id",
			"modules": "18",
			"isPhi": false,
			"accessGroupIdListColumnName": "access_group_id_list",
			"isCataloged": false,
			"ordinalPosition": 16
		}, {
			"name": "record attachments",
			"description": "The file attachments associated with this record.",
			"descriptionHtml": "The file attachments associated with this record.",
			"type": {
				"name": "Integer"
			},
			"precision": 10,
			"specialFlags": "ATTACHMENTS_COLLECTION",
			"linkEntityClass": "net.labmatrix.beans.CustomDataRecord:13",
			"columnName": "id",
			"modules": "18",
			"isPhi": false,
			"accessGroupIdListColumnName": "access_group_id_list",
			"isCataloged": false,
			"ordinalPosition": 17
		}],
		"isSnapshot": false,
		"isSorted": true,
		"type": "FORM",
		"indexes": [{
			"name": "CUSTOM_DATA_FORM_13_PRIMARY_KEY",
			"isSystem": true,
			"isDisabled": false,
			"columns": [{
				"definitionField": {
					"name": "record id",
					"description": "The system-generated record ID.",
					"descriptionHtml": "The system-generated record ID.",
					"type": {
						"name": "Integer"
					},
					"precision": 10,
					"columnName": "id",
					"modules": "18",
					"isPhi": false,
					"accessGroupIdListColumnName": "access_group_id_list",
					"isCataloged": false,
					"ordinalPosition": 3
				},
				"isDescendingKey": false,
				"isIncludedColumn": false,
				"keyOrdinal": 0
			}]
		}, {
			"name": "idx_CUSTOM_DATA_FORM_13_external_id_source",
			"isSystem": true,
			"isDisabled": false,
			"columns": [{
				"definitionField": {
					"name": "record external id",
					"description": "The legacy ID of this record in the system where it was originally stored.",
					"descriptionHtml": "The legacy ID of this record in the system where it was originally stored.",
					"type": {
						"name": "String"
					},
					"size": 256,
					"columnName": "__external_id",
					"modules": "18",
					"isPhi": false,
					"accessGroupIdListColumnName": "access_group_id_list",
					"isCataloged": false,
					"ordinalPosition": 8
				},
				"isDescendingKey": false,
				"isIncludedColumn": false,
				"keyOrdinal": 0
			}, {
				"definitionField": {
					"name": "record external source",
					"description": "The name of the system where this record was originally stored.",
					"descriptionHtml": "The name of the system where this record was originally stored.",
					"type": {
						"name": "String"
					},
					"size": 256,
					"columnName": "__external_source",
					"modules": "18",
					"isPhi": false,
					"accessGroupIdListColumnName": "access_group_id_list",
					"isCataloged": false,
					"ordinalPosition": 9
				},
				"isDescendingKey": false,
				"isIncludedColumn": false,
				"keyOrdinal": 1
			}]
		}]
	},
	"displayForNewRecord": false
}