{
	"@type": "CustomDataFormImportExportView",
	"name": "Transfer Request",
	"type": "STANDALONE",
	"externalId": "Transfer Request",
	"accessGroupForRecords": "Public",
	"useDefault": true,
	"showAttachments": true,
	"allowReadOnlyRecords": false,
	"attachmentsLabel": "Attachments",
	"createSqbDataSource": true,
	"multipleEntries": true,
	"storeComments": true,
	"allowRecordLock": false,
	"allowEditWithoutEntityPerms": false,
	"columnNum": 2,
	"allowManualEntryExternalId": false,
	"showCreateAnother": true,
	"showSaveButton": true,
	"showInDataEntry": true,
	"showInSearch": true,
	"fields": [{
		"name": "Name",
		"label": "Request Name",
		"externalId": "Name",
		"commentsDisplayType": "AS_TOOLTIP",
		"containsPHI": false,
		"defaultToCurrent": false,
		"upperBound": "250",
		"addNewValuesToList": true,
		"fieldType": "TEXT",
		"required": false,
		"title": true
	}, {
		"name": "Status",
		"externalId": "Status",
		"acceptedValues": "Draft,Submitted,Approved,Rejected,Fulfilled,Canceled",
		"commentsDisplayType": "AS_TOOLTIP",
		"containsPHI": false,
		"defaultToCurrent": false,
		"fieldType": "LIST",
		"required": false,
		"title": false
	}, {
		"name": "Requestor Name",
		"externalId": "Requestor Name",
		"commentsDisplayType": "AS_TOOLTIP",
		"containsPHI": false,
		"defaultToCurrent": false,
		"upperBound": "250",
		"addNewValuesToList": true,
		"fieldType": "TEXT",
		"required": false,
		"title": false
	}, {
		"name": "Relevant Studies",
		"externalId": "Relevant Studies",
		"commentsDisplayType": "AS_TOOLTIP",
		"containsPHI": false,
		"defaultToCurrent": false,
		"upperBound": "250",
		"addNewValuesToList": true,
		"fieldType": "TEXT",
		"required": false,
		"title": false
	}, {
		"name": "History",
		"externalId": "History",
		"commentsDisplayType": "AS_TOOLTIP",
		"containsPHI": false,
		"defaultToCurrent": false,
		"childForm": {
			"formExternalId": "Workflow History",
			"name": "Workflow History"
		},
		"fieldType": "CHILD_FORM",
		"required": false,
		"title": false
	}, {
		"name": "Destination",
		"label": "Destination Facility",
		"externalId": "Destination ID",
		"commentsDisplayType": "AS_TOOLTIP",
		"containsPHI": false,
		"defaultToCurrent": false,
		"addNewValuesToList": true,
		"fieldType": "INTEGER",
		"required": false,
		"title": false
	}, {
		"name": "Destination Address",
		"externalId": "Destination Address",
		"commentsDisplayType": "AS_TOOLTIP",
		"containsPHI": false,
		"defaultToCurrent": false,
		"fieldType": "LARGE_TEXT",
		"required": false,
		"title": false
	}, {
		"name": "Description",
		"externalId": "Description",
		"commentsDisplayType": "AS_TOOLTIP",
		"containsPHI": false,
		"defaultToCurrent": false,
		"fieldType": "LARGE_TEXT",
		"required": false,
		"title": false
	}, {
		"name": "Date Needed By",
		"externalId": "Date Needed By",
		"commentsDisplayType": "AS_TOOLTIP",
		"containsPHI": false,
		"defaultToCurrent": false,
		"addNewValuesToList": true,
		"fieldType": "DATE",
		"required": false,
		"title": false
	}, {
		"name": "Assignee",
		"externalId": "Assignee ID",
		"commentsDisplayType": "AS_TOOLTIP",
		"containsPHI": false,
		"defaultToCurrent": false,
		"fieldType": "INTEGER",
		"required": false,
		"title": false
	}, {
		"name": "Query Log",
		"externalId": "Query Log",
		"commentsDisplayType": "AS_TOOLTIP",
		"containsPHI": false,
		"defaultToCurrent": false,
		"childForm": {
			"formExternalId": "Request Query",
			"name": "Query Log"
		},
		"fieldType": "CHILD_FORM",
		"required": false,
		"title": false
	}],
	"datasource": {
		"@type": "QiagramDatasourceImportExportView",
		"name": "Transfer Requests",
		"isUserIcon": false,
		"autoUpdateInCatalog": false,
		"paletteGroup": "Workflows",
		"martName": "MART_EX_FORM_Transfer Request",
		"fields": [{
			"name": "Name",
			"type": {
				"name": "String"
			},
			"size": 250,
			"linkEntityClass": "net.labmatrix.beans.CustomDataRecord:9",
			"columnName": "Name",
			"idColumnName": "id",
			"modules": "18",
			"isPhi": false,
			"accessGroupIdListColumnName": "access_group_id_list",
			"isCataloged": false,
			"ordinalPosition": 0
		}, {
			"name": "Status",
			"type": {
				"name": "String"
			},
			"size": 500,
			"columnName": "Status",
			"modules": "18",
			"isPhi": false,
			"accessGroupIdListColumnName": "access_group_id_list",
			"isCataloged": false,
			"ordinalPosition": 1
		}, {
			"name": "Requestor Name",
			"type": {
				"name": "String"
			},
			"size": 250,
			"columnName": "Requestor Name",
			"modules": "18",
			"isPhi": false,
			"accessGroupIdListColumnName": "access_group_id_list",
			"isCataloged": false,
			"ordinalPosition": 2
		}, {
			"name": "Relevant Studies",
			"type": {
				"name": "String"
			},
			"size": 250,
			"columnName": "Relevant Studies",
			"modules": "18",
			"isPhi": false,
			"accessGroupIdListColumnName": "access_group_id_list",
			"isCataloged": false,
			"ordinalPosition": 3
		}, {
			"name": "Destination",
			"type": {
				"name": "Integer"
			},
			"precision": 10,
			"columnName": "Destination",
			"modules": "18",
			"isPhi": false,
			"accessGroupIdListColumnName": "access_group_id_list",
			"isCataloged": false,
			"ordinalPosition": 4
		}, {
			"name": "Destination Address",
			"type": {
				"name": "String"
			},
			"size": -1,
			"columnName": "Destination Address",
			"modules": "18",
			"isPhi": false,
			"accessGroupIdListColumnName": "access_group_id_list",
			"isCataloged": false,
			"ordinalPosition": 5
		}, {
			"name": "Description",
			"type": {
				"name": "String"
			},
			"size": -1,
			"columnName": "Description",
			"modules": "18",
			"isPhi": false,
			"accessGroupIdListColumnName": "access_group_id_list",
			"isCataloged": false,
			"ordinalPosition": 6
		}, {
			"name": "Date Needed By",
			"type": {
				"name": "Date"
			},
			"columnName": "Date Needed By",
			"modules": "18",
			"isPhi": false,
			"accessGroupIdListColumnName": "access_group_id_list",
			"isCataloged": false,
			"ordinalPosition": 7
		}, {
			"name": "Assignee",
			"type": {
				"name": "Integer"
			},
			"precision": 10,
			"columnName": "Assignee",
			"modules": "18",
			"isPhi": false,
			"accessGroupIdListColumnName": "access_group_id_list",
			"isCataloged": false,
			"ordinalPosition": 8
		}, {
			"name": "record id",
			"description": "The system-generated record ID.",
			"descriptionHtml": "The system-generated record ID.",
			"type": {
				"name": "Integer"
			},
			"precision": 10,
			"linkEntityClass": "net.labmatrix.beans.CustomDataRecord:9",
			"columnName": "id",
			"idColumnName": "id",
			"modules": "18",
			"isPhi": false,
			"accessGroupIdListColumnName": "access_group_id_list",
			"isCataloged": false,
			"ordinalPosition": 9
		}, {
			"name": "record is read-only",
			"description": "Whether this record is locked, making the record read-only",
			"descriptionHtml": "Whether this record is locked, making the record read-only",
			"type": {
				"name": "Boolean"
			},
			"columnName": "is_locked",
			"modules": "18",
			"isPhi": false,
			"accessGroupIdListColumnName": "access_group_id_list",
			"isCataloged": false,
			"ordinalPosition": 10
		}, {
			"name": "record external id",
			"description": "The legacy ID of this record in the system where it was originally stored.",
			"descriptionHtml": "The legacy ID of this record in the system where it was originally stored.",
			"type": {
				"name": "String"
			},
			"size": 256,
			"columnName": "__external_id",
			"modules": "18",
			"isPhi": false,
			"accessGroupIdListColumnName": "access_group_id_list",
			"isCataloged": false,
			"ordinalPosition": 11
		}, {
			"name": "record external source",
			"description": "The name of the system where this record was originally stored.",
			"descriptionHtml": "The name of the system where this record was originally stored.",
			"type": {
				"name": "String"
			},
			"size": 256,
			"columnName": "__external_source",
			"modules": "18",
			"isPhi": false,
			"accessGroupIdListColumnName": "access_group_id_list",
			"isCataloged": false,
			"ordinalPosition": 12
		}, {
			"name": "record create date",
			"description": "The date this record was created.",
			"descriptionHtml": "The date this record was created.",
			"type": {
				"name": "Datetime"
			},
			"columnName": "record_create_date",
			"modules": "18",
			"isPhi": false,
			"accessGroupIdListColumnName": "access_group_id_list",
			"isCataloged": false,
			"ordinalPosition": 13
		}, {
			"name": "record creator",
			"description": "The user who created this record.",
			"descriptionHtml": "The user who created this record.",
			"type": {
				"name": "String"
			},
			"size": 250,
			"columnName": "record_creator",
			"modules": "18",
			"isPhi": false,
			"accessGroupIdListColumnName": "access_group_id_list",
			"isCataloged": false,
			"ordinalPosition": 14
		}, {
			"name": "record last modified date",
			"description": "The date this record was last modified.",
			"descriptionHtml": "The date this record was last modified.",
			"type": {
				"name": "Datetime"
			},
			"columnName": "record_last_modified_date",
			"modules": "18",
			"isPhi": false,
			"accessGroupIdListColumnName": "access_group_id_list",
			"isCataloged": false,
			"ordinalPosition": 15
		}, {
			"name": "record last modifier",
			"description": "The user who last modified this record.",
			"descriptionHtml": "The user who last modified this record.",
			"type": {
				"name": "String"
			},
			"size": 250,
			"columnName": "record_last_modifier",
			"modules": "18",
			"isPhi": false,
			"accessGroupIdListColumnName": "access_group_id_list",
			"isCataloged": false,
			"ordinalPosition": 16
		}, {
			"name": "batch id",
			"description": "The id of the batch in which this record was uploaded.",
			"descriptionHtml": "The id of the batch in which this record was uploaded.",
			"type": {
				"name": "String"
			},
			"size": 250,
			"columnName": "batch_id",
			"modules": "18",
			"isPhi": false,
			"accessGroupIdListColumnName": "access_group_id_list",
			"isCataloged": false,
			"ordinalPosition": 17
		}, {
			"name": "batch step id",
			"description": "The id of the step of the batch in which this record was uploaded.",
			"descriptionHtml": "The id of the step of the batch in which this record was uploaded.",
			"type": {
				"name": "String"
			},
			"size": 250,
			"columnName": "batch_step_id",
			"modules": "18",
			"isPhi": false,
			"accessGroupIdListColumnName": "access_group_id_list",
			"isCataloged": false,
			"ordinalPosition": 18
		}, {
			"name": "form id",
			"description": "The id of the custom data form.",
			"descriptionHtml": "The id of the custom data form.",
			"type": {
				"name": "Integer"
			},
			"columnName": "form_id",
			"modules": "18",
			"isPhi": false,
			"accessGroupIdListColumnName": "access_group_id_list",
			"isCataloged": false,
			"ordinalPosition": 19
		}, {
			"name": "record attachments",
			"description": "The file attachments associated with this record.",
			"descriptionHtml": "The file attachments associated with this record.",
			"type": {
				"name": "Integer"
			},
			"precision": 10,
			"specialFlags": "ATTACHMENTS_COLLECTION",
			"linkEntityClass": "net.labmatrix.beans.CustomDataRecord:9",
			"columnName": "id",
			"modules": "18",
			"isPhi": false,
			"accessGroupIdListColumnName": "access_group_id_list",
			"isCataloged": false,
			"ordinalPosition": 20
		}],
		"isSnapshot": false,
		"isSorted": true,
		"type": "FORM",
		"indexes": [{
			"name": "CUSTOM_DATA_FORM_9_PRIMARY_KEY",
			"isSystem": true,
			"isDisabled": false,
			"columns": [{
				"definitionField": {
					"name": "record id",
					"description": "The system-generated record ID.",
					"descriptionHtml": "The system-generated record ID.",
					"type": {
						"name": "Integer"
					},
					"precision": 10,
					"linkEntityClass": "net.labmatrix.beans.CustomDataRecord:9",
					"columnName": "id",
					"idColumnName": "id",
					"modules": "18",
					"isPhi": false,
					"accessGroupIdListColumnName": "access_group_id_list",
					"isCataloged": false,
					"ordinalPosition": 9
				},
				"isDescendingKey": false,
				"isIncludedColumn": false,
				"keyOrdinal": 0
			}]
		}, {
			"name": "idx_CUSTOM_DATA_FORM_9_external_id_source",
			"isSystem": true,
			"isDisabled": false,
			"columns": [{
				"definitionField": {
					"name": "record external id",
					"description": "The legacy ID of this record in the system where it was originally stored.",
					"descriptionHtml": "The legacy ID of this record in the system where it was originally stored.",
					"type": {
						"name": "String"
					},
					"size": 256,
					"columnName": "__external_id",
					"modules": "18",
					"isPhi": false,
					"accessGroupIdListColumnName": "access_group_id_list",
					"isCataloged": false,
					"ordinalPosition": 11
				},
				"isDescendingKey": false,
				"isIncludedColumn": false,
				"keyOrdinal": 0
			}, {
				"definitionField": {
					"name": "record external source",
					"description": "The name of the system where this record was originally stored.",
					"descriptionHtml": "The name of the system where this record was originally stored.",
					"type": {
						"name": "String"
					},
					"size": 256,
					"columnName": "__external_source",
					"modules": "18",
					"isPhi": false,
					"accessGroupIdListColumnName": "access_group_id_list",
					"isCataloged": false,
					"ordinalPosition": 12
				},
				"isDescendingKey": false,
				"isIncludedColumn": false,
				"keyOrdinal": 1
			}]
		}, {
			"name": "IX_CUSTOM_DATA_FORM_9_field_77",
			"isSystem": true,
			"isDisabled": false,
			"columns": [{
				"definitionField": {
					"name": "Name",
					"type": {
						"name": "String"
					},
					"size": 250,
					"linkEntityClass": "net.labmatrix.beans.CustomDataRecord:9",
					"columnName": "Name",
					"idColumnName": "id",
					"modules": "18",
					"isPhi": false,
					"accessGroupIdListColumnName": "access_group_id_list",
					"isCataloged": false,
					"ordinalPosition": 0
				},
				"isDescendingKey": false,
				"isIncludedColumn": false,
				"keyOrdinal": 0
			}]
		}],
		"accessGroupName": "Public"
	},
	"displayForNewRecord": false
}