{
	"@type": "UploadConfigImportExportView",
	"apiKey": "moderna.dataloaders.eurofins",
	"displayName": "Eurofins Dataloader",
	"helpText": "",
	"failOnRowErrors": "NONE",
	"debug": true,
	"restricted": false,
	"roles": [{
		"name": "Clinical Data Admin"
	}],
	"uiLocations": ["UPLOAD_MENU"],
	"extractor": {
		"@type": "Default",
		"uploadProcedure": {
			"transformations": [{
				"@type": "Column Transformer",
				"steps": [{
					"oldColumnName": "STUDYID",
					"newColumnName": "Study",
					"stepType": "RENAME"
				}, {
					"oldColumnName": "USUBJID",
					"newColumnName": "Subject ID",
					"stepType": "RENAME"
				}, {
					"oldColumnName": "LBSPEC",
					"newColumnName": "Sample Type",
					"stepType": "RENAME"
				}, {
					"oldColumnName": "SAMPNAME",
					"newColumnName": "Sample Name",
					"stepType": "RENAME"
				}, {
					"oldColumnName": "LBTPT",
					"newColumnName": "Timepoint",
					"stepType": "RENAME"
				}, {
					"oldColumnName": "LBDAT",
					"newColumnName": "Collection Date",
					"stepType": "RENAME"
				}, {
					"oldColumnName": "LBTIM",
					"newColumnName": "Collection Time",
					"stepType": "RENAME"
				}, {
					"oldColumnName": "SAMPSTAT",
					"newColumnName": "Sample Status",
					"stepType": "RENAME"
				}, {
					"oldColumnName": "REQID",
					"newColumnName": "Requisition Number",
					"stepType": "RENAME"
				}, {
					"oldColumnName": "SAMPID",
					"newColumnName": "Parent Sample ID",
					"stepType": "RENAME"
				}, {
					"newColumnName": "Shipping Facility",
					"columnValue": "Eurofins",
					"stepType": "ADD"
				}, {
					"oldColumnName": "SHPDAT",
					"newColumnName": "Shipped Date",
					"stepType": "RENAME"
				}, {
					"oldColumnName": "LBNAM",
					"newColumnName": "Primary Lab",
					"stepType": "RENAME"
				}, {
					"oldColumnName": "SAMPCOM",
					"newColumnName": "Sample Comment",
					"stepType": "RENAME"
				}, {
					"oldColumnName": "CROSTUDY",
					"newColumnName": "Vendor Study Name",
					"stepType": "RENAME"
				}, {
					"oldColumnName": "ALTID",
					"newColumnName": "Alternate ID",
					"stepType": "RENAME"
				}, {
					"oldColumnName": "RCVDAT",
					"newColumnName": "Received Date",
					"stepType": "RENAME"
				}, {
					"oldColumnName": "SAMPCOM2",
					"newColumnName": "Eurofins Comment",
					"stepType": "RENAME"
				}, {
					"oldColumnName": "RECTEMP",
					"newColumnName": "Received Sample Temp",
					"stepType": "RENAME"
				}, {
					"oldColumnName": "STORTEMP",
					"newColumnName": "Expected Sample Temp",
					"stepType": "RENAME"
				}, {
					"oldColumnName": "THAW",
					"newColumnName": "Thaws",
					"stepType": "RENAME"
				}, {
					"oldColumnName": "LBSPCCND",
					"newColumnName": "Vial Warnings",
					"stepType": "RENAME"
				}, {
					"oldColumnName": "ALQID",
					"newColumnName": "Aliquot Number",
					"stepType": "RENAME"
				}, {
					"oldColumnName": "ESTVOL",
					"newColumnName": "Volume",
					"stepType": "RENAME"
				}, {
					"oldColumnName": "VOLUNIT",
					"newColumnName": "Volume Unit",
					"stepType": "RENAME"
				}, {
					"oldColumnName": "SITEID",
					"newColumnName": "Site Number",
					"stepType": "RENAME"
				}, {
					"oldColumnName": "FLDAT",
					"newColumnName": "File Date",
					"stepType": "RENAME"
				}, {
					"newColumnName": "Vendor Sample ID",
					"columnValue": "Eurofins",
					"stepType": "ADD"
				}]
			}],
			"operator": {
				"@type": "Querier",
				"validationResources": [{
					"@type": "Query",
					"name": "MD-Biomaterial - 01 - DLVAL - 5101 - Sample ID - Required",
					"path": "Shared/Data Loading/Moderna-specific/Conditioners/Biomaterial/Eurofins Dataloader/Validations/"
				}, {
					"@type": "Query",
					"name": "MSD-Biomaterial - 01 - DLVAL - 5102 - Study Number - Required",
					"path": "Shared/Data Loading/Moderna-specific/Conditioners/Biomaterial/Eurofins Dataloader/Validations/"
				}, {
					"@type": "Query",
					"name": "MSD-Biomaterial - 01 - DLVAL - 5112 - Study Number - Valid",
					"path": "Shared/Data Loading/Moderna-specific/Conditioners/Biomaterial/Eurofins Dataloader/Validations/"
				}, {
					"@type": "Query",
					"name": "MSD-Biomaterial - 01 - DLVAL - Sample Type-Valid",
					"path": "Shared/Data Loading/Moderna-specific/Conditioners/Biomaterial/Eurofins Dataloader/Validations/"
				}, {
					"@type": "Query",
					"name": "Biomaterial - 01 - DLVAL - 5103 - Subject ID - Required",
					"path": "Shared/Data Loading/Validations/Biomaterial/",
					"apiKey": "labmatrix.slc.Biomaterial.DLVAL.5103"
				}, {
					"@type": "Query",
					"name": "Biomaterial - 01 - DLVAL - 5104 - Duplicate Facilities Trans - Created By Facility",
					"path": "Shared/Data Loading/Validations/Biomaterial/",
					"apiKey": "labmatrix.slc.Biomaterial.DLVAL.5104"
				}, {
					"@type": "Query",
					"name": "Biomaterial - 01 - DLVAL - 5105 - Duplicate Facilities Trans - Receiving Facility",
					"path": "Shared/Data Loading/Validations/Biomaterial/",
					"apiKey": "labmatrix.slc.Biomaterial.DLVAL.5105"
				}, {
					"@type": "Query",
					"name": "Biomaterial - 01 - DLVAL - 5106 - Duplicate Facilities Trans - Shipping Facility",
					"path": "Shared/Data Loading/Validations/Biomaterial/",
					"apiKey": "labmatrix.slc.Biomaterial.DLVAL.5106"
				}, {
					"@type": "Query",
					"name": "Biomaterial - 01 - DLVAL - 5107 - Duplicate Facilities Trans - Vendor",
					"path": "Shared/Data Loading/Validations/Biomaterial/",
					"apiKey": "labmatrix.slc.Biomaterial.DLVAL.5107"
				}, {
					"@type": "Query",
					"name": "Biomaterial - 01 - DLVAL - 5116 - Duplicate Study Name Trans",
					"path": "Shared/Data Loading/Validations/Biomaterial/",
					"apiKey": "labmatrix.slc.Biomaterial.DLVAL.5116"
				}, {
					"@type": "Query",
					"name": "Biomaterial - 01 - DLVAL - 5125 - Subject ID - Multiple Lookup Matches",
					"path": "Shared/Data Loading/Validations/Biomaterial/",
					"apiKey": "labmatrix.slc.Biomaterial.DLVAL.5125"
				}, {
					"@type": "Query",
					"name": "Biomaterial - 01 - DLVAL - 5126 - Subject ID - Alt ID Conflicts",
					"path": "Shared/Data Loading/Validations/Biomaterial/",
					"apiKey": "labmatrix.slc.Biomaterial.DLVAL.5126"
				}, {
					"@type": "Query",
					"name": "Biomaterial - 01 - DLVAL - 5117 - Subject ID - Required for Stub Parent",
					"path": "Shared/Data Loading/Validations/Biomaterial/",
					"apiKey": "labmatrix.slc.Biomaterial.DLVAL.5117"
				}],
				"procedures": [{
					"@type": "Query",
					"queryConfig": {
						"@type": "Query",
						"name": "BM Qry",
						"path": "Shared/Data Loading/Moderna-specific/Conditioners/Biomaterial/Eurofins Dataloader/"
					},
					"procedure": {
						"operator": {
							"@type": "Loader",
							"loader": {
								"type": "UPLOAD_CONFIG",
								"uploadConfig": {
									"apiKey": "labmatrix.SLC.dataloader.Biomaterial",
									"displayName": "Biomaterial Data Loader"
								}
							}
						},
						"destinationName": "Biomaterial Data Loader"
					}
				}, {
					"@type": "Query",
					"queryConfig": {
						"@type": "Query",
						"name": "Moderna BM Details",
						"path": "Shared/Data Loading/Moderna-specific/Conditioners/Biomaterial/Eurofins Dataloader/"
					},
					"procedure": {
						"operator": {
							"@type": "Loader",
							"loader": {
								"type": "FORM",
								"form": {
									"formExternalId": "Moderna Biomaterial Detail",
									"name": "Moderna Biomaterial Detail"
								}
							},
							"parameters": [{
								"name": "Form Biomaterial Key",
								"prompt": "Find Biomaterial record by",
								"defaultValue": "Biomaterial External ID and Source",
								"promptUser": false
							}, {
								"name": "Change Linked Record",
								"prompt": "Allow changes to associated Biomaterial",
								"defaultValue": "No",
								"promptUser": false
							}, {
								"name": "FormValidation",
								"prompt": "Run Form validation queries",
								"defaultValue": "true",
								"promptUser": false
							}, {
								"name": "FormCalculation",
								"prompt": "Run Form calculation queries",
								"defaultValue": "true",
								"promptUser": false
							}]
						},
						"destinationName": "Moderna Biomaterial Detail"
					}
				}, {
					"@type": "Query",
					"queryConfig": {
						"@type": "Query",
						"name": "Eurofins Vendor Study Name - Create",
						"path": "Shared/Data Loading/Moderna-specific/Conditioners/Biomaterial/Eurofins Dataloader/"
					},
					"procedure": {
						"operator": {
							"@type": "Loader",
							"loader": {
								"type": "FORM",
								"form": {
									"formExternalId": "Vendor Study Name",
									"name": "Vendor Study Name"
								}
							},
							"parameters": [{
								"name": "Form Key",
								"prompt": "Find existing records by",
								"defaultValue": "Record External ID and Source",
								"promptUser": false
							}, {
								"name": "Change Linked Record",
								"prompt": "Allow changes to associated Study",
								"defaultValue": "No",
								"promptUser": false
							}, {
								"name": "FormValidation",
								"prompt": "Run Form validation queries",
								"defaultValue": "true",
								"promptUser": false
							}, {
								"name": "FormCalculation",
								"prompt": "Run Form calculation queries",
								"defaultValue": "true",
								"promptUser": false
							}]
						},
						"destinationName": "Vendor Study Name"
					}
				}],
				"dataSource": {
					"name": "STAGING - Biomaterial"
				},
				"queryCacheSettings": {
					"name": "Biomaterial - 02 - DLCAC - 5000 - DataLoader Conditioning Query"
				}
			}
		},
		"columnAllowlist": "ALQID, ALTID, LBDAT, LBTIM, COUNTRY, SAMPCOM2, STORTEMP, FLDAT, LBNAM, RCVDAT, RECTEMP, REQID, SAMPCOM, SAMPNAME, SAMPSTAT, LBSPEC, SHPDAT, SITEID, SAMPID, STUDYID, USUBJID, THAW, LBTPT, CROSTUDY, LBSPCCND, VISIT, ESTVOL, VOLUNIT, BARCODE",
		"maxAllowedLines": 10
	},
	"useSpecifiedDateTimeFormat": false,
	"submenuPath": "Biomaterial"
}